^C:\USERS\MEIRAJL.SKYSOFT\DOCUMENTS\DEVELOPMENT\TECHNICAL VALIDATION\TECHNICAL VALIDATION\STDAFX.CPP
C:\WINDOWS\GLOBALIZATION\SORTING\SORTDEFAULT.NLS
C:\PROGRAM FILES (X86)\MICROSOFT VISUAL STUDIO 14.0\VC\BIN\X86_AMD64\1033\CLUI.DLL
C:\WINDOWS\SYSTEM32\TZRES.DLL
C:\USERS\MEIRAJL.SKYSOFT\DOCUMENTS\DEVELOPMENT\TECHNICAL VALIDATION\TECHNICAL VALIDATION\STDAFX.H
C:\USERS\MEIRAJL.SKYSOFT\DOCUMENTS\DEVELOPMENT\TECHNICAL VALIDATION\TECHNICAL VALIDATION\TARGETVER.H
C:\PROGRAM FILES (X86)\WINDOWS KITS\8.1\INCLUDE\SHARED\SDKDDKVER.H
C:\PROGRAM FILES (X86)\MICROSOFT VISUAL STUDIO 14.0\VC\ATLMFC\INCLUDE\AFXWIN.H
C:\PROGRAM FILES (X86)\MICROSOFT VISUAL STUDIO 14.0\VC\ATLMFC\INCLUDE\AFX.H
C:\PROGRAM FILES (X86)\WINDOWS KITS\10\INCLUDE\10.0.10240.0\UCRT\NEW.H
C:\PROGRAM FILES (X86)\WINDOWS KITS\10\INCLUDE\10.0.10240.0\UCRT\CORECRT.H
C:\PROGRAM FILES (X86)\MICROSOFT VISUAL STUDIO 14.0\VC\INCLUDE\VCRUNTIME.H
C:\PROGRAM FILES (X86)\MICROSOFT VISUAL STUDIO 14.0\VC\INCLUDE\SAL.H
C:\PROGRAM FILES (X86)\MICROSOFT VISUAL STUDIO 14.0\VC\INCLUDE\CONCURRENCYSAL.H
C:\PROGRAM FILES (X86)\MICROSOFT VISUAL STUDIO 14.0\VC\INCLUDE\VADEFS.H
C:\PROGRAM FILES (X86)\MICROSOFT VISUAL STUDIO 14.0\VC\INCLUDE\VCRUNTIME_NEW_DEBUG.H
C:\PROGRAM FILES (X86)\MICROSOFT VISUAL STUDIO 14.0\VC\INCLUDE\VCRUNTIME_NEW.H
C:\PROGRAM FILES (X86)\MICROSOFT VISUAL STUDIO 14.0\VC\INCLUDE\CRTDEFS.H
C:\PROGRAM FILES (X86)\MICROSOFT VISUAL STUDIO 14.0\VC\ATLMFC\INCLUDE\AFXVER_.H
C:\PROGRAM FILES (X86)\MICROSOFT VISUAL STUDIO 14.0\VC\ATLMFC\INCLUDE\AFXV_W32.H
C:\PROGRAM FILES (X86)\WINDOWS KITS\8.1\INCLUDE\UM\WINSDKVER.H
C:\PROGRAM FILES (X86)\WINDOWS KITS\8.1\INCLUDE\SHARED\WINAPIFAMILY.H
C:\PROGRAM FILES (X86)\WINDOWS KITS\8.1\INCLUDE\UM\WINDOWS.H
C:\PROGRAM FILES (X86)\MICROSOFT VISUAL STUDIO 14.0\VC\INCLUDE\EXCPT.H
C:\PROGRAM FILES (X86)\MICROSOFT VISUAL STUDIO 14.0\VC\INCLUDE\STDARG.H
C:\PROGRAM FILES (X86)\WINDOWS KITS\8.1\INCLUDE\SHARED\WINDEF.H
C:\PROGRAM FILES (X86)\WINDOWS KITS\8.1\INCLUDE\SHARED\MINWINDEF.H
C:\PROGRAM FILES (X86)\WINDOWS KITS\8.1\INCLUDE\SHARED\SPECSTRINGS.H
C:\PROGRAM FILES (X86)\WINDOWS KITS\8.1\INCLUDE\SHARED\SPECSTRINGS_STRICT.H
C:\PROGRAM FILES (X86)\WINDOWS KITS\8.1\INCLUDE\SHARED\SPECSTRINGS_UNDEF.H
C:\PROGRAM FILES (X86)\WINDOWS KITS\8.1\INCLUDE\SHARED\DRIVERSPECS.H
C:\PROGRAM FILES (X86)\WINDOWS KITS\8.1\INCLUDE\SHARED\SDV_DRIVERSPECS.H
C:\PROGRAM FILES (X86)\WINDOWS KITS\8.1\INCLUDE\UM\WINNT.H
C:\PROGRAM FILES (X86)\WINDOWS KITS\10\INCLUDE\10.0.10240.0\UCRT\CTYPE.H
C:\PROGRAM FILES (X86)\WINDOWS KITS\10\INCLUDE\10.0.10240.0\UCRT\CORECRT_WCTYPE.H
C:\PROGRAM FILES (X86)\WINDOWS KITS\8.1\INCLUDE\SHARED\KERNELSPECS.H
C:\PROGRAM FILES (X86)\WINDOWS KITS\8.1\INCLUDE\SHARED\BASETSD.H
C:\PROGRAM FILES (X86)\WINDOWS KITS\8.1\INCLUDE\SHARED\GUIDDEF.H
C:\PROGRAM FILES (X86)\WINDOWS KITS\10\INCLUDE\10.0.10240.0\UCRT\STRING.H
C:\PROGRAM FILES (X86)\WINDOWS KITS\10\INCLUDE\10.0.10240.0\UCRT\CORECRT_MEMORY.H
C:\PROGRAM FILES (X86)\WINDOWS KITS\10\INCLUDE\10.0.10240.0\UCRT\CORECRT_MEMCPY_S.H
C:\PROGRAM FILES (X86)\WINDOWS KITS\10\INCLUDE\10.0.10240.0\UCRT\ERRNO.H
C:\PROGRAM FILES (X86)\MICROSOFT VISUAL STUDIO 14.0\VC\INCLUDE\VCRUNTIME_STRING.H
C:\PROGRAM FILES (X86)\WINDOWS KITS\10\INCLUDE\10.0.10240.0\UCRT\CORECRT_WSTRING.H
C:\PROGRAM FILES (X86)\WINDOWS KITS\8.1\INCLUDE\SHARED\PSHPACK4.H
C:\PROGRAM FILES (X86)\WINDOWS KITS\8.1\INCLUDE\SHARED\POPPACK.H
C:\PROGRAM FILES (X86)\WINDOWS KITS\8.1\INCLUDE\SHARED\PSHPACK2.H
C:\PROGRAM FILES (X86)\WINDOWS KITS\8.1\INCLUDE\SHARED\PSHPACK8.H
C:\PROGRAM FILES (X86)\WINDOWS KITS\8.1\INCLUDE\SHARED\APISET.H
C:\PROGRAM FILES (X86)\WINDOWS KITS\8.1\INCLUDE\SHARED\KTMTYPES.H
C:\PROGRAM FILES (X86)\WINDOWS KITS\8.1\INCLUDE\UM\WINBASE.H
C:\PROGRAM FILES (X86)\WINDOWS KITS\8.1\INCLUDE\SHARED\APISETCCONV.H
C:\PROGRAM FILES (X86)\WINDOWS KITS\8.1\INCLUDE\UM\MINWINBASE.H
C:\PROGRAM FILES (X86)\WINDOWS KITS\8.1\INCLUDE\UM\PROCESSENV.H
C:\PROGRAM FILES (X86)\WINDOWS KITS\8.1\INCLUDE\UM\FILEAPI.H
C:\PROGRAM FILES (X86)\WINDOWS KITS\8.1\INCLUDE\UM\DEBUGAPI.H
C:\PROGRAM FILES (X86)\WINDOWS KITS\8.1\INCLUDE\UM\UTILAPISET.H
C:\PROGRAM FILES (X86)\WINDOWS KITS\8.1\INCLUDE\UM\HANDLEAPI.H
C:\PROGRAM FILES (X86)\WINDOWS KITS\8.1\INCLUDE\UM\ERRHANDLINGAPI.H
C:\PROGRAM FILES (X86)\WINDOWS KITS\8.1\INCLUDE\UM\FIBERSAPI.H
C:\PROGRAM FILES (X86)\WINDOWS KITS\8.1\INCLUDE\UM\NAMEDPIPEAPI.H
C:\PROGRAM FILES (X86)\WINDOWS KITS\8.1\INCLUDE\UM\PROFILEAPI.H
C:\PROGRAM FILES (X86)\WINDOWS KITS\8.1\INCLUDE\UM\HEAPAPI.H
C:\PROGRAM FILES (X86)\WINDOWS KITS\8.1\INCLUDE\UM\IOAPISET.H
C:\PROGRAM FILES (X86)\WINDOWS KITS\8.1\INCLUDE\UM\SYNCHAPI.H
C:\PROGRAM FILES (X86)\WINDOWS KITS\8.1\INCLUDE\UM\INTERLOCKEDAPI.H
C:\PROGRAM FILES (X86)\WINDOWS KITS\8.1\INCLUDE\UM\PROCESSTHREADSAPI.H
C:\PROGRAM FILES (X86)\WINDOWS KITS\8.1\INCLUDE\UM\SYSINFOAPI.H
C:\PROGRAM FILES (X86)\WINDOWS KITS\8.1\INCLUDE\UM\MEMORYAPI.H
C:\PROGRAM FILES (X86)\WINDOWS KITS\8.1\INCLUDE\UM\THREADPOOLLEGACYAPISET.H
C:\PROGRAM FILES (X86)\WINDOWS KITS\8.1\INCLUDE\UM\THREADPOOLAPISET.H
C:\PROGRAM FILES (X86)\WINDOWS KITS\8.1\INCLUDE\UM\BEMAPISET.H
C:\PROGRAM FILES (X86)\WINDOWS KITS\8.1\INCLUDE\UM\JOBAPI.H
C:\PROGRAM FILES (X86)\WINDOWS KITS\8.1\INCLUDE\UM\WOW64APISET.H
C:\PROGRAM FILES (X86)\WINDOWS KITS\8.1\INCLUDE\UM\LIBLOADERAPI.H
C:\PROGRAM FILES (X86)\WINDOWS KITS\8.1\INCLUDE\UM\SECURITYBASEAPI.H
C:\PROGRAM FILES (X86)\WINDOWS KITS\8.1\INCLUDE\UM\NAMESPACEAPI.H
C:\PROGRAM FILES (X86)\WINDOWS KITS\8.1\INCLUDE\UM\SYSTEMTOPOLOGYAPI.H
C:\PROGRAM FILES (X86)\WINDOWS KITS\8.1\INCLUDE\UM\PROCESSTOPOLOGYAPI.H
C:\PROGRAM FILES (X86)\WINDOWS KITS\8.1\INCLUDE\UM\SECURITYAPPCONTAINER.H
C:\PROGRAM FILES (X86)\WINDOWS KITS\8.1\INCLUDE\UM\REALTIMEAPISET.H
C:\PROGRAM FILES (X86)\WINDOWS KITS\8.1\INCLUDE\SHARED\WINERROR.H
C:\PROGRAM FILES (X86)\WINDOWS KITS\8.1\INCLUDE\UM\TIMEZONEAPI.H
C:\PROGRAM FILES (X86)\WINDOWS KITS\8.1\INCLUDE\UM\WINGDI.H
C:\PROGRAM FILES (X86)\WINDOWS KITS\8.1\INCLUDE\SHARED\PSHPACK1.H
C:\PROGRAM FILES (X86)\WINDOWS KITS\8.1\INCLUDE\UM\WINUSER.H
C:\PROGRAM FILES (X86)\WINDOWS KITS\8.1\INCLUDE\SHARED\TVOUT.H
C:\PROGRAM FILES (X86)\WINDOWS KITS\8.1\INCLUDE\UM\WINNLS.H
C:\PROGRAM FILES (X86)\WINDOWS KITS\8.1\INCLUDE\UM\DATETIMEAPI.H
C:\PROGRAM FILES (X86)\WINDOWS KITS\8.1\INCLUDE\UM\STRINGAPISET.H
C:\PROGRAM FILES (X86)\WINDOWS KITS\8.1\INCLUDE\UM\WINCON.H
C:\PROGRAM FILES (X86)\WINDOWS KITS\8.1\INCLUDE\UM\CONSOLEAPI.H
C:\PROGRAM FILES (X86)\WINDOWS KITS\8.1\INCLUDE\UM\WINVER.H
C:\PROGRAM FILES (X86)\WINDOWS KITS\8.1\INCLUDE\UM\VERRSRC.H
C:\PROGRAM FILES (X86)\WINDOWS KITS\8.1\INCLUDE\UM\WINREG.H
C:\PROGRAM FILES (X86)\WINDOWS KITS\8.1\INCLUDE\UM\REASON.H
C:\PROGRAM FILES (X86)\WINDOWS KITS\8.1\INCLUDE\UM\WINNETWK.H
C:\PROGRAM FILES (X86)\WINDOWS KITS\8.1\INCLUDE\SHARED\WNNC.H
C:\PROGRAM FILES (X86)\WINDOWS KITS\8.1\INCLUDE\SHARED\STRALIGN.H
C:\PROGRAM FILES (X86)\WINDOWS KITS\8.1\INCLUDE\UM\ZMOUSE.H
C:\PROGRAM FILES (X86)\WINDOWS KITS\8.1\INCLUDE\UM\COMMCTRL.H
C:\PROGRAM FILES (X86)\WINDOWS KITS\8.1\INCLUDE\UM\PRSHT.H
C:\PROGRAM FILES (X86)\WINDOWS KITS\10\INCLUDE\10.0.10240.0\UCRT\TCHAR.H
C:\PROGRAM FILES (X86)\WINDOWS KITS\10\INCLUDE\10.0.10240.0\UCRT\MBSTRING.H
C:\PROGRAM FILES (X86)\WINDOWS KITS\10\INCLUDE\10.0.10240.0\UCRT\MBCTYPE.H
C:\PROGRAM FILES (X86)\WINDOWS KITS\10\INCLUDE\10.0.10240.0\UCRT\STDIO.H
C:\PROGRAM FILES (X86)\WINDOWS KITS\10\INCLUDE\10.0.10240.0\UCRT\CORECRT_WSTDIO.H
C:\PROGRAM FILES (X86)\WINDOWS KITS\10\INCLUDE\10.0.10240.0\UCRT\CORECRT_STDIO_CONFIG.H
C:\PROGRAM FILES (X86)\WINDOWS KITS\10\INCLUDE\10.0.10240.0\UCRT\STDLIB.H
C:\PROGRAM FILES (X86)\WINDOWS KITS\10\INCLUDE\10.0.10240.0\UCRT\CORECRT_MALLOC.H
C:\PROGRAM FILES (X86)\WINDOWS KITS\10\INCLUDE\10.0.10240.0\UCRT\CORECRT_SEARCH.H
C:\PROGRAM FILES (X86)\WINDOWS KITS\10\INCLUDE\10.0.10240.0\UCRT\STDDEF.H
C:\PROGRAM FILES (X86)\WINDOWS KITS\10\INCLUDE\10.0.10240.0\UCRT\CORECRT_WSTDLIB.H
C:\PROGRAM FILES (X86)\MICROSOFT VISUAL STUDIO 14.0\VC\INCLUDE\LIMITS.H
C:\PROGRAM FILES (X86)\WINDOWS KITS\10\INCLUDE\10.0.10240.0\UCRT\TIME.H
C:\PROGRAM FILES (X86)\WINDOWS KITS\10\INCLUDE\10.0.10240.0\UCRT\CORECRT_WTIME.H
C:\PROGRAM FILES (X86)\WINDOWS KITS\10\INCLUDE\10.0.10240.0\UCRT\MALLOC.H
C:\PROGRAM FILES (X86)\WINDOWS KITS\10\INCLUDE\10.0.10240.0\UCRT\CRTDBG.H
C:\PROGRAM FILES (X86)\MICROSOFT VISUAL STUDIO 14.0\VC\ATLMFC\INCLUDE\AFXSTR.H
C:\PROGRAM FILES (X86)\MICROSOFT VISUAL STUDIO 14.0\VC\ATLMFC\INCLUDE\ATLCORE.H
C:\PROGRAM FILES (X86)\MICROSOFT VISUAL STUDIO 14.0\VC\ATLMFC\INCLUDE\ATLDEF.H
C:\PROGRAM FILES (X86)\MICROSOFT VISUAL STUDIO 14.0\VC\ATLMFC\INCLUDE\ATLRC.H
C:\PROGRAM FILES (X86)\WINDOWS KITS\8.1\INCLUDE\UM\OLE2.H
C:\PROGRAM FILES (X86)\WINDOWS KITS\8.1\INCLUDE\UM\OBJBASE.H
C:\PROGRAM FILES (X86)\WINDOWS KITS\8.1\INCLUDE\SHARED\RPC.H
C:\PROGRAM FILES (X86)\WINDOWS KITS\8.1\INCLUDE\SHARED\RPCDCE.H
C:\PROGRAM FILES (X86)\WINDOWS KITS\8.1\INCLUDE\SHARED\RPCDCEP.H
C:\PROGRAM FILES (X86)\WINDOWS KITS\8.1\INCLUDE\UM\RPCNSI.H
C:\PROGRAM FILES (X86)\WINDOWS KITS\8.1\INCLUDE\SHARED\RPCNTERR.H
C:\PROGRAM FILES (X86)\WINDOWS KITS\8.1\INCLUDE\SHARED\RPCASYNC.H
C:\PROGRAM FILES (X86)\WINDOWS KITS\8.1\INCLUDE\SHARED\RPCNDR.H
C:\PROGRAM FILES (X86)\WINDOWS KITS\8.1\INCLUDE\UM\RPCNSIP.H
C:\PROGRAM FILES (X86)\WINDOWS KITS\8.1\INCLUDE\SHARED\RPCSAL.H
C:\PROGRAM FILES (X86)\WINDOWS KITS\8.1\INCLUDE\UM\COMBASEAPI.H
C:\PROGRAM FILES (X86)\WINDOWS KITS\8.1\INCLUDE\SHARED\WTYPESBASE.H
C:\PROGRAM FILES (X86)\WINDOWS KITS\8.1\INCLUDE\UM\UNKNWNBASE.H
C:\PROGRAM FILES (X86)\WINDOWS KITS\8.1\INCLUDE\UM\OBJIDLBASE.H
C:\PROGRAM FILES (X86)\WINDOWS KITS\8.1\INCLUDE\UM\CGUID.H
C:\PROGRAM FILES (X86)\WINDOWS KITS\8.1\INCLUDE\UM\OBJIDL.H
C:\PROGRAM FILES (X86)\WINDOWS KITS\8.1\INCLUDE\UM\UNKNWN.H
C:\PROGRAM FILES (X86)\WINDOWS KITS\8.1\INCLUDE\SHARED\WTYPES.H
C:\PROGRAM FILES (X86)\WINDOWS KITS\8.1\INCLUDE\UM\URLMON.H
C:\PROGRAM FILES (X86)\WINDOWS KITS\8.1\INCLUDE\UM\OLEIDL.H
C:\PROGRAM FILES (X86)\WINDOWS KITS\8.1\INCLUDE\UM\SERVPROV.H
C:\PROGRAM FILES (X86)\WINDOWS KITS\8.1\INCLUDE\UM\MSXML.H
C:\PROGRAM FILES (X86)\WINDOWS KITS\8.1\INCLUDE\UM\OAIDL.H
C:\PROGRAM FILES (X86)\WINDOWS KITS\8.1\INCLUDE\UM\PROPIDL.H
C:\PROGRAM FILES (X86)\WINDOWS KITS\8.1\INCLUDE\UM\OLEAUTO.H
C:\PROGRAM FILES (X86)\MICROSOFT VISUAL STUDIO 14.0\VC\ATLMFC\INCLUDE\ATLCHECKED.H
C:\PROGRAM FILES (X86)\MICROSOFT VISUAL STUDIO 14.0\VC\ATLMFC\INCLUDE\ATLEXCEPT.H
C:\PROGRAM FILES (X86)\MICROSOFT VISUAL STUDIO 14.0\VC\ATLMFC\INCLUDE\ATLTRACE.H
C:\PROGRAM FILES (X86)\MICROSOFT VISUAL STUDIO 14.0\VC\ATLMFC\INCLUDE\ATLCONV.H
C:\PROGRAM FILES (X86)\MICROSOFT VISUAL STUDIO 14.0\VC\ATLMFC\INCLUDE\ATLALLOC.H
C:\PROGRAM FILES (X86)\WINDOWS KITS\10\INCLUDE\10.0.10240.0\UCRT\WCHAR.H
C:\PROGRAM FILES (X86)\WINDOWS KITS\10\INCLUDE\10.0.10240.0\UCRT\CORECRT_WCONIO.H
C:\PROGRAM FILES (X86)\WINDOWS KITS\10\INCLUDE\10.0.10240.0\UCRT\CORECRT_WDIRECT.H
C:\PROGRAM FILES (X86)\WINDOWS KITS\10\INCLUDE\10.0.10240.0\UCRT\CORECRT_WIO.H
C:\PROGRAM FILES (X86)\WINDOWS KITS\10\INCLUDE\10.0.10240.0\UCRT\CORECRT_SHARE.H
C:\PROGRAM FILES (X86)\WINDOWS KITS\10\INCLUDE\10.0.10240.0\UCRT\CORECRT_WPROCESS.H
C:\PROGRAM FILES (X86)\WINDOWS KITS\10\INCLUDE\10.0.10240.0\UCRT\SYS\STAT.H
C:\PROGRAM FILES (X86)\WINDOWS KITS\10\INCLUDE\10.0.10240.0\UCRT\SYS\TYPES.H
C:\PROGRAM FILES (X86)\MICROSOFT VISUAL STUDIO 14.0\VC\ATLMFC\INCLUDE\ATLSIMPCOLL.H
C:\PROGRAM FILES (X86)\MICROSOFT VISUAL STUDIO 14.0\VC\ATLMFC\INCLUDE\ATLWINVERAPI.H
C:\PROGRAM FILES (X86)\MICROSOFT VISUAL STUDIO 14.0\VC\ATLMFC\INCLUDE\CSTRINGT.H
C:\PROGRAM FILES (X86)\MICROSOFT VISUAL STUDIO 14.0\VC\ATLMFC\INCLUDE\ATLSIMPSTR.H
C:\PROGRAM FILES (X86)\MICROSOFT VISUAL STUDIO 14.0\VC\ATLMFC\INCLUDE\ATLMEM.H
C:\PROGRAM FILES (X86)\MICROSOFT VISUAL STUDIO 14.0\VC\ATLMFC\INCLUDE\ATLCOMMEM.H
C:\PROGRAM FILES (X86)\MICROSOFT VISUAL STUDIO 14.0\VC\ATLMFC\INCLUDE\ATLCOMCLI.H
C:\PROGRAM FILES (X86)\WINDOWS KITS\8.1\INCLUDE\UM\OLECTL.H
C:\PROGRAM FILES (X86)\WINDOWS KITS\8.1\INCLUDE\UM\OCIDL.H
C:\PROGRAM FILES (X86)\MICROSOFT VISUAL STUDIO 14.0\VC\INCLUDE\INTRIN.H
C:\PROGRAM FILES (X86)\MICROSOFT VISUAL STUDIO 14.0\VC\INCLUDE\SETJMP.H
C:\PROGRAM FILES (X86)\MICROSOFT VISUAL STUDIO 14.0\VC\INCLUDE\IMMINTRIN.H
C:\PROGRAM FILES (X86)\MICROSOFT VISUAL STUDIO 14.0\VC\INCLUDE\WMMINTRIN.H
C:\PROGRAM FILES (X86)\MICROSOFT VISUAL STUDIO 14.0\VC\INCLUDE\NMMINTRIN.H
C:\PROGRAM FILES (X86)\MICROSOFT VISUAL STUDIO 14.0\VC\INCLUDE\SMMINTRIN.H
C:\PROGRAM FILES (X86)\MICROSOFT VISUAL STUDIO 14.0\VC\INCLUDE\TMMINTRIN.H
C:\PROGRAM FILES (X86)\MICROSOFT VISUAL STUDIO 14.0\VC\INCLUDE\PMMINTRIN.H
C:\PROGRAM FILES (X86)\MICROSOFT VISUAL STUDIO 14.0\VC\INCLUDE\EMMINTRIN.H
C:\PROGRAM FILES (X86)\MICROSOFT VISUAL STUDIO 14.0\VC\INCLUDE\XMMINTRIN.H
C:\PROGRAM FILES (X86)\MICROSOFT VISUAL STUDIO 14.0\VC\INCLUDE\MMINTRIN.H
C:\PROGRAM FILES (X86)\MICROSOFT VISUAL STUDIO 14.0\VC\INCLUDE\AMMINTRIN.H
C:\PROGRAM FILES (X86)\MICROSOFT VISUAL STUDIO 14.0\VC\ATLMFC\INCLUDE\ATLTRANSACTIONMANAGER.H
C:\PROGRAM FILES (X86)\WINDOWS KITS\8.1\INCLUDE\UM\KTMW32.H
C:\PROGRAM FILES (X86)\MICROSOFT VISUAL STUDIO 14.0\VC\ATLMFC\INCLUDE\ATLTIME.H
C:\PROGRAM FILES (X86)\WINDOWS KITS\8.1\INCLUDE\UM\OLEDB.H
C:\PROGRAM FILES (X86)\WINDOWS KITS\8.1\INCLUDE\UM\TRANSACT.H
C:\PROGRAM FILES (X86)\WINDOWS KITS\8.1\INCLUDE\UM\ACCCTRL.H
C:\PROGRAM FILES (X86)\MICROSOFT VISUAL STUDIO 14.0\VC\ATLMFC\INCLUDE\AFXCOLL.H
C:\PROGRAM FILES (X86)\MICROSOFT VISUAL STUDIO 14.0\VC\ATLMFC\INCLUDE\AFXSTAT_.H
C:\PROGRAM FILES (X86)\MICROSOFT VISUAL STUDIO 14.0\VC\ATLMFC\INCLUDE\ATLTYPES.H
C:\PROGRAM FILES (X86)\MICROSOFT VISUAL STUDIO 14.0\VC\ATLMFC\INCLUDE\AFXTLS_.H
C:\PROGRAM FILES (X86)\MICROSOFT VISUAL STUDIO 14.0\VC\ATLMFC\INCLUDE\AFXCOLL.INL
C:\PROGRAM FILES (X86)\MICROSOFT VISUAL STUDIO 14.0\VC\ATLMFC\INCLUDE\AFX.INL
C:\PROGRAM FILES (X86)\WINDOWS KITS\8.1\INCLUDE\UM\SHELLAPI.H
C:\PROGRAM FILES (X86)\MICROSOFT VISUAL STUDIO 14.0\VC\ATLMFC\INCLUDE\AFXRES.H
C:\PROGRAM FILES (X86)\WINDOWS KITS\8.1\INCLUDE\UM\COMMDLG.H
C:\PROGRAM FILES (X86)\MICROSOFT VISUAL STUDIO 14.0\VC\ATLMFC\INCLUDE\AFXCTRLCONTAINER.H
C:\PROGRAM FILES (X86)\WINDOWS KITS\8.1\INCLUDE\UM\SHOBJIDL.H
C:\PROGRAM FILES (X86)\WINDOWS KITS\8.1\INCLUDE\UM\DOCOBJ.H
C:\PROGRAM FILES (X86)\WINDOWS KITS\8.1\INCLUDE\UM\SHTYPES.H
C:\PROGRAM FILES (X86)\WINDOWS KITS\8.1\INCLUDE\UM\COMCAT.H
C:\PROGRAM FILES (X86)\WINDOWS KITS\8.1\INCLUDE\UM\PROPSYS.H
C:\PROGRAM FILES (X86)\WINDOWS KITS\8.1\INCLUDE\UM\STRUCTUREDQUERYCONDITION.H
C:\PROGRAM FILES (X86)\WINDOWS KITS\8.1\INCLUDE\UM\PROPKEYDEF.H
C:\PROGRAM FILES (X86)\WINDOWS KITS\8.1\INCLUDE\UM\OBJECTARRAY.H
C:\PROGRAM FILES (X86)\WINDOWS KITS\8.1\INCLUDE\UM\SHERRORS.H
C:\PROGRAM FILES (X86)\WINDOWS KITS\8.1\INCLUDE\UM\THUMBCACHE.H
C:\PROGRAM FILES (X86)\MICROSOFT VISUAL STUDIO 14.0\VC\ATLMFC\INCLUDE\ATLHANDLER.H
C:\PROGRAM FILES (X86)\WINDOWS KITS\8.1\INCLUDE\UM\FILTER.H
C:\PROGRAM FILES (X86)\MICROSOFT VISUAL STUDIO 14.0\VC\ATLMFC\INCLUDE\ATLSTR.H
C:\PROGRAM FILES (X86)\MICROSOFT VISUAL STUDIO 14.0\VC\ATLMFC\INCLUDE\ATLBASE.H
C:\PROGRAM FILES (X86)\WINDOWS KITS\8.1\INCLUDE\UM\WINSOCK2.H
C:\PROGRAM FILES (X86)\WINDOWS KITS\8.1\INCLUDE\SHARED\WS2DEF.H
C:\PROGRAM FILES (X86)\WINDOWS KITS\8.1\INCLUDE\SHARED\INADDR.H
C:\PROGRAM FILES (X86)\WINDOWS KITS\8.1\INCLUDE\SHARED\QOS.H
C:\PROGRAM FILES (X86)\MICROSOFT VISUAL STUDIO 14.0\VC\ATLMFC\INCLUDE\ATLIFACE.H
C:\PROGRAM FILES (X86)\WINDOWS KITS\8.1\INCLUDE\UM\OLEACC.H
C:\PROGRAM FILES (X86)\WINDOWS KITS\10\INCLUDE\10.0.10240.0\UCRT\PROCESS.H
C:\PROGRAM FILES (X86)\WINDOWS KITS\10\INCLUDE\10.0.10240.0\UCRT\CORECRT_STARTUP.H
C:\PROGRAM FILES (X86)\WINDOWS KITS\10\INCLUDE\10.0.10240.0\UCRT\MATH.H
C:\PROGRAM FILES (X86)\MICROSOFT VISUAL STUDIO 14.0\VC\INCLUDE\VCRUNTIME_STARTUP.H
C:\PROGRAM FILES (X86)\MICROSOFT VISUAL STUDIO 14.0\VC\INCLUDE\STDBOOL.H
C:\PROGRAM FILES (X86)\WINDOWS KITS\8.1\INCLUDE\UM\SHLWAPI.H
C:\PROGRAM FILES (X86)\MICROSOFT VISUAL STUDIO 14.0\VC\ATLMFC\INCLUDE\STATREG.H
C:\PROGRAM FILES (X86)\WINDOWS KITS\8.1\INCLUDE\UM\TPCSHRD.H
C:\PROGRAM FILES (X86)\WINDOWS KITS\8.1\INCLUDE\UM\VSSYM32.H
C:\PROGRAM FILES (X86)\WINDOWS KITS\8.1\INCLUDE\UM\VSSTYLE.H
C:\PROGRAM FILES (X86)\WINDOWS KITS\8.1\INCLUDE\SHARED\WS2IPDEF.H
C:\PROGRAM FILES (X86)\WINDOWS KITS\8.1\INCLUDE\SHARED\IN6ADDR.H
C:\PROGRAM FILES (X86)\WINDOWS KITS\8.1\INCLUDE\UM\WINDNS.H
C:\PROGRAM FILES (X86)\WINDOWS KITS\8.1\INCLUDE\UM\IPHLPAPI.H
C:\PROGRAM FILES (X86)\WINDOWS KITS\8.1\INCLUDE\SHARED\IPRTRMIB.H
C:\PROGRAM FILES (X86)\WINDOWS KITS\8.1\INCLUDE\SHARED\MPRAPIDEF.H
C:\PROGRAM FILES (X86)\WINDOWS KITS\8.1\INCLUDE\SHARED\LMCONS.H
C:\PROGRAM FILES (X86)\WINDOWS KITS\8.1\INCLUDE\SHARED\IPIFCONS.H
C:\PROGRAM FILES (X86)\WINDOWS KITS\8.1\INCLUDE\SHARED\IPMIB.H
C:\PROGRAM FILES (X86)\WINDOWS KITS\8.1\INCLUDE\SHARED\IFMIB.H
C:\PROGRAM FILES (X86)\WINDOWS KITS\8.1\INCLUDE\SHARED\IFDEF.H
C:\PROGRAM FILES (X86)\WINDOWS KITS\8.1\INCLUDE\SHARED\NLDEF.H
C:\PROGRAM FILES (X86)\WINDOWS KITS\8.1\INCLUDE\SHARED\TCPMIB.H
C:\PROGRAM FILES (X86)\WINDOWS KITS\8.1\INCLUDE\SHARED\UDPMIB.H
C:\PROGRAM FILES (X86)\WINDOWS KITS\8.1\INCLUDE\UM\IPEXPORT.H
C:\PROGRAM FILES (X86)\WINDOWS KITS\8.1\INCLUDE\SHARED\PACKON.H
C:\PROGRAM FILES (X86)\WINDOWS KITS\8.1\INCLUDE\SHARED\PACKOFF.H
C:\PROGRAM FILES (X86)\WINDOWS KITS\8.1\INCLUDE\UM\IPTYPES.H
C:\PROGRAM FILES (X86)\WINDOWS KITS\8.1\INCLUDE\SHARED\TCPESTATS.H
C:\PROGRAM FILES (X86)\WINDOWS KITS\8.1\INCLUDE\SHARED\NETIOAPI.H
C:\PROGRAM FILES (X86)\WINDOWS KITS\8.1\INCLUDE\SHARED\NTDDNDIS.H
C:\PROGRAM FILES (X86)\WINDOWS KITS\8.1\INCLUDE\SHARED\DEVPKEY.H
C:\PROGRAM FILES (X86)\WINDOWS KITS\8.1\INCLUDE\SHARED\DEVPROPDEF.H
C:\PROGRAM FILES (X86)\WINDOWS KITS\8.1\INCLUDE\SHARED\PCIPROP.H
C:\PROGRAM FILES (X86)\WINDOWS KITS\8.1\INCLUDE\SHARED\WINDOT11.H
C:\PROGRAM FILES (X86)\WINDOWS KITS\8.1\INCLUDE\SHARED\WLANTYPES.H
C:\PROGRAM FILES (X86)\WINDOWS KITS\8.1\INCLUDE\UM\DWMAPI.H
C:\PROGRAM FILES (X86)\WINDOWS KITS\8.1\INCLUDE\UM\UXTHEME.H
C:\PROGRAM FILES (X86)\WINDOWS KITS\8.1\INCLUDE\UM\HTMLHELP.H
C:\PROGRAM FILES (X86)\WINDOWS KITS\8.1\INCLUDE\UM\UIANIMATION.H
C:\PROGRAM FILES (X86)\WINDOWS KITS\8.1\INCLUDE\UM\DCOMPANIMATION.H
C:\PROGRAM FILES (X86)\MICROSOFT VISUAL STUDIO 14.0\VC\ATLMFC\INCLUDE\AFXANIMATIONCONTROLLER.H
C:\PROGRAM FILES (X86)\MICROSOFT VISUAL STUDIO 14.0\VC\ATLMFC\INCLUDE\AFXANIMATIONHELPER.H
C:\PROGRAM FILES (X86)\MICROSOFT VISUAL STUDIO 14.0\VC\ATLMFC\INCLUDE\AFXTEMPL.H
C:\PROGRAM FILES (X86)\MICROSOFT VISUAL STUDIO 14.0\VC\ATLMFC\INCLUDE\AFXPLEX_.H
C:\PROGRAM FILES (X86)\MICROSOFT VISUAL STUDIO 14.0\VC\ATLMFC\INCLUDE\AFXMSG_.H
C:\PROGRAM FILES (X86)\MICROSOFT VISUAL STUDIO 14.0\VC\ATLMFC\INCLUDE\AFXDD_.H
C:\PROGRAM FILES (X86)\MICROSOFT VISUAL STUDIO 14.0\VC\ATLMFC\INCLUDE\AFXRENDERTARGET.H
C:\PROGRAM FILES (X86)\WINDOWS KITS\8.1\INCLUDE\SHARED\D3D9TYPES.H
C:\PROGRAM FILES (X86)\WINDOWS KITS\10\INCLUDE\10.0.10240.0\UCRT\FLOAT.H
C:\PROGRAM FILES (X86)\WINDOWS KITS\8.1\INCLUDE\SHARED\DXGITYPE.H
C:\PROGRAM FILES (X86)\WINDOWS KITS\8.1\INCLUDE\SHARED\DXGIFORMAT.H
C:\PROGRAM FILES (X86)\WINDOWS KITS\8.1\INCLUDE\UM\D2D1.H
C:\PROGRAM FILES (X86)\WINDOWS KITS\8.1\INCLUDE\UM\DCOMMON.H
C:\PROGRAM FILES (X86)\WINDOWS KITS\8.1\INCLUDE\UM\D2DERR.H
C:\PROGRAM FILES (X86)\WINDOWS KITS\8.1\INCLUDE\UM\D2DBASETYPES.H
C:\PROGRAM FILES (X86)\WINDOWS KITS\8.1\INCLUDE\UM\D3D10_1.H
C:\PROGRAM FILES (X86)\WINDOWS KITS\8.1\INCLUDE\UM\D3D10.H
C:\PROGRAM FILES (X86)\WINDOWS KITS\8.1\INCLUDE\SHARED\DXGI.H
C:\PROGRAM FILES (X86)\WINDOWS KITS\8.1\INCLUDE\UM\D3DCOMMON.H
C:\PROGRAM FILES (X86)\WINDOWS KITS\8.1\INCLUDE\UM\D3D10SDKLAYERS.H
C:\PROGRAM FILES (X86)\WINDOWS KITS\8.1\INCLUDE\UM\D3D10MISC.H
C:\PROGRAM FILES (X86)\WINDOWS KITS\8.1\INCLUDE\UM\D3D10SHADER.H
C:\PROGRAM FILES (X86)\WINDOWS KITS\8.1\INCLUDE\UM\D3D10EFFECT.H
C:\PROGRAM FILES (X86)\WINDOWS KITS\8.1\INCLUDE\UM\D3D10_1SHADER.H
C:\PROGRAM FILES (X86)\WINDOWS KITS\8.1\INCLUDE\UM\D2D1HELPER.H
C:\PROGRAM FILES (X86)\WINDOWS KITS\8.1\INCLUDE\UM\DWRITE.H
C:\PROGRAM FILES (X86)\WINDOWS KITS\8.1\INCLUDE\UM\WINCODEC.H
C:\PROGRAM FILES (X86)\WINDOWS KITS\8.1\INCLUDE\SHARED\INTSAFE.H
C:\PROGRAM FILES (X86)\MICROSOFT VISUAL STUDIO 14.0\VC\ATLMFC\INCLUDE\AFXWIN1.INL
C:\PROGRAM FILES (X86)\MICROSOFT VISUAL STUDIO 14.0\VC\ATLMFC\INCLUDE\AFXWIN2.INL
C:\PROGRAM FILES (X86)\MICROSOFT VISUAL STUDIO 14.0\VC\ATLMFC\INCLUDE\AFXWIN3.INL
C:\PROGRAM FILES (X86)\MICROSOFT VISUAL STUDIO 14.0\VC\ATLMFC\INCLUDE\AFXWIN4.INL
C:\PROGRAM FILES (X86)\MICROSOFT VISUAL STUDIO 14.0\VC\ATLMFC\INCLUDE\AFXLAYOUT.H
C:\PROGRAM FILES (X86)\MICROSOFT VISUAL STUDIO 14.0\VC\ATLMFC\INCLUDE\AFXEXT.H
C:\PROGRAM FILES (X86)\MICROSOFT VISUAL STUDIO 14.0\VC\ATLMFC\INCLUDE\AFXDLGS.H
C:\PROGRAM FILES (X86)\WINDOWS KITS\8.1\INCLUDE\UM\RICHEDIT.H
C:\PROGRAM FILES (X86)\MICROSOFT VISUAL STUDIO 14.0\VC\ATLMFC\INCLUDE\AFXDLGS.INL
C:\PROGRAM FILES (X86)\MICROSOFT VISUAL STUDIO 14.0\VC\ATLMFC\INCLUDE\AFXEXT.INL
C:\PROGRAM FILES (X86)\MICROSOFT VISUAL STUDIO 14.0\VC\ATLMFC\INCLUDE\AFXDISP.H
C:\PROGRAM FILES (X86)\WINDOWS KITS\8.1\INCLUDE\UM\SHLOBJ.H
C:\PROGRAM FILES (X86)\WINDOWS KITS\8.1\INCLUDE\UM\SHLGUID.H
C:\PROGRAM FILES (X86)\WINDOWS KITS\8.1\INCLUDE\UM\ISGUIDS.H
C:\PROGRAM FILES (X86)\WINDOWS KITS\8.1\INCLUDE\UM\EXDISP.H
C:\PROGRAM FILES (X86)\WINDOWS KITS\8.1\INCLUDE\UM\SHLDISP.H
C:\PROGRAM FILES (X86)\WINDOWS KITS\8.1\INCLUDE\UM\KNOWNFOLDERS.H
C:\PROGRAM FILES (X86)\MICROSOFT VISUAL STUDIO 14.0\VC\ATLMFC\INCLUDE\ATLCOMTIME.H
C:\PROGRAM FILES (X86)\MICROSOFT VISUAL STUDIO 14.0\VC\ATLMFC\INCLUDE\AFXOCC.H
C:\PROGRAM FILES (X86)\MICROSOFT VISUAL STUDIO 14.0\VC\ATLMFC\INCLUDE\OLEBIND.H
C:\PROGRAM FILES (X86)\MICROSOFT VISUAL STUDIO 14.0\VC\ATLMFC\INCLUDE\OCDBID.H
C:\PROGRAM FILES (X86)\MICROSOFT VISUAL STUDIO 14.0\VC\ATLMFC\INCLUDE\OCDB.H
C:\PROGRAM FILES (X86)\MICROSOFT VISUAL STUDIO 14.0\VC\ATLMFC\INCLUDE\AFXOLE.INL
C:\PROGRAM FILES (X86)\MICROSOFT VISUAL STUDIO 14.0\VC\ATLMFC\INCLUDE\AFXDTCTL.H
C:\PROGRAM FILES (X86)\MICROSOFT VISUAL STUDIO 14.0\VC\ATLMFC\INCLUDE\AFXDTCTL.INL
C:\PROGRAM FILES (X86)\MICROSOFT VISUAL STUDIO 14.0\VC\ATLMFC\INCLUDE\AFXCMN.H
C:\PROGRAM FILES (X86)\MICROSOFT VISUAL STUDIO 14.0\VC\ATLMFC\INCLUDE\AFXCMN.INL
C:\PROGRAM FILES (X86)\MICROSOFT VISUAL STUDIO 14.0\VC\ATLMFC\INCLUDE\AFXCMN2.INL
C:\PROGRAM FILES (X86)\MICROSOFT VISUAL STUDIO 14.0\VC\ATLMFC\INCLUDE\AFXCMN3.INL
C:\PROGRAM FILES (X86)\MICROSOFT VISUAL STUDIO 14.0\VC\ATLMFC\INCLUDE\AFXCONTROLBARS.H
C:\PROGRAM FILES (X86)\MICROSOFT VISUAL STUDIO 14.0\VC\ATLMFC\INCLUDE\AFXCONTROLBARUTIL.H
C:\PROGRAM FILES (X86)\MICROSOFT VISUAL STUDIO 14.0\VC\ATLMFC\INCLUDE\AFXUSERTOOLSMANAGER.H
C:\PROGRAM FILES (X86)\MICROSOFT VISUAL STUDIO 14.0\VC\ATLMFC\INCLUDE\AFXUSERTOOL.H
C:\PROGRAM FILES (X86)\MICROSOFT VISUAL STUDIO 14.0\VC\ATLMFC\INCLUDE\AFXTOOLBAR.H
C:\PROGRAM FILES (X86)\MICROSOFT VISUAL STUDIO 14.0\VC\ATLMFC\INCLUDE\AFXTOOLBARDROPTARGET.H
C:\PROGRAM FILES (X86)\MICROSOFT VISUAL STUDIO 14.0\VC\ATLMFC\INCLUDE\AFXOLE.H
C:\PROGRAM FILES (X86)\MICROSOFT VISUAL STUDIO 14.0\VC\ATLMFC\INCLUDE\AFXCOM_.H
C:\PROGRAM FILES (X86)\MICROSOFT VISUAL STUDIO 14.0\VC\ATLMFC\INCLUDE\AFXTOOLBARDROPSOURCE.H
C:\PROGRAM FILES (X86)\MICROSOFT VISUAL STUDIO 14.0\VC\ATLMFC\INCLUDE\AFXTOOLBARIMAGES.H
C:\PROGRAM FILES (X86)\MICROSOFT VISUAL STUDIO 14.0\VC\ATLMFC\INCLUDE\AFXMT.H
C:\PROGRAM FILES (X86)\MICROSOFT VISUAL STUDIO 14.0\VC\ATLMFC\INCLUDE\AFXMT.INL
C:\PROGRAM FILES (X86)\MICROSOFT VISUAL STUDIO 14.0\VC\ATLMFC\INCLUDE\ATLIMAGE.H
C:\PROGRAM FILES (X86)\WINDOWS KITS\8.1\INCLUDE\UM\GDIPLUS.H
C:\PROGRAM FILES (X86)\WINDOWS KITS\8.1\INCLUDE\UM\GDIPLUSMEM.H
C:\PROGRAM FILES (X86)\WINDOWS KITS\8.1\INCLUDE\UM\GDIPLUSBASE.H
C:\PROGRAM FILES (X86)\WINDOWS KITS\8.1\INCLUDE\UM\GDIPLUSENUMS.H
C:\PROGRAM FILES (X86)\WINDOWS KITS\8.1\INCLUDE\UM\GDIPLUSTYPES.H
C:\PROGRAM FILES (X86)\WINDOWS KITS\8.1\INCLUDE\UM\GDIPLUSINIT.H
C:\PROGRAM FILES (X86)\WINDOWS KITS\8.1\INCLUDE\UM\GDIPLUSPIXELFORMATS.H
C:\PROGRAM FILES (X86)\WINDOWS KITS\8.1\INCLUDE\UM\GDIPLUSCOLOR.H
C:\PROGRAM FILES (X86)\WINDOWS KITS\8.1\INCLUDE\UM\GDIPLUSMETAHEADER.H
C:\PROGRAM FILES (X86)\WINDOWS KITS\8.1\INCLUDE\UM\GDIPLUSIMAGING.H
C:\PROGRAM FILES (X86)\WINDOWS KITS\8.1\INCLUDE\UM\GDIPLUSCOLORMATRIX.H
C:\PROGRAM FILES (X86)\WINDOWS KITS\8.1\INCLUDE\UM\GDIPLUSGPSTUBS.H
C:\PROGRAM FILES (X86)\WINDOWS KITS\8.1\INCLUDE\UM\GDIPLUSHEADERS.H
C:\PROGRAM FILES (X86)\WINDOWS KITS\8.1\INCLUDE\UM\GDIPLUSFLAT.H
C:\PROGRAM FILES (X86)\WINDOWS KITS\8.1\INCLUDE\UM\GDIPLUSIMAGEATTRIBUTES.H
C:\PROGRAM FILES (X86)\WINDOWS KITS\8.1\INCLUDE\UM\GDIPLUSMATRIX.H
C:\PROGRAM FILES (X86)\WINDOWS KITS\8.1\INCLUDE\UM\GDIPLUSBRUSH.H
C:\PROGRAM FILES (X86)\WINDOWS KITS\8.1\INCLUDE\UM\GDIPLUSPEN.H
C:\PROGRAM FILES (X86)\WINDOWS KITS\8.1\INCLUDE\UM\GDIPLUSSTRINGFORMAT.H
C:\PROGRAM FILES (X86)\WINDOWS KITS\8.1\INCLUDE\UM\GDIPLUSPATH.H
C:\PROGRAM FILES (X86)\WINDOWS KITS\8.1\INCLUDE\UM\GDIPLUSLINECAPS.H
C:\PROGRAM FILES (X86)\WINDOWS KITS\8.1\INCLUDE\UM\GDIPLUSGRAPHICS.H
C:\PROGRAM FILES (X86)\WINDOWS KITS\8.1\INCLUDE\UM\GDIPLUSMETAFILE.H
C:\PROGRAM FILES (X86)\WINDOWS KITS\8.1\INCLUDE\UM\GDIPLUSCACHEDBITMAP.H
C:\PROGRAM FILES (X86)\WINDOWS KITS\8.1\INCLUDE\UM\GDIPLUSREGION.H
C:\PROGRAM FILES (X86)\WINDOWS KITS\8.1\INCLUDE\UM\GDIPLUSFONTCOLLECTION.H
C:\PROGRAM FILES (X86)\WINDOWS KITS\8.1\INCLUDE\UM\GDIPLUSFONTFAMILY.H
C:\PROGRAM FILES (X86)\WINDOWS KITS\8.1\INCLUDE\UM\GDIPLUSFONT.H
C:\PROGRAM FILES (X86)\WINDOWS KITS\8.1\INCLUDE\UM\GDIPLUSBITMAP.H
C:\PROGRAM FILES (X86)\WINDOWS KITS\8.1\INCLUDE\UM\GDIPLUSIMAGECODEC.H
C:\PROGRAM FILES (X86)\MICROSOFT VISUAL STUDIO 14.0\VC\ATLMFC\INCLUDE\AFXTOOLBARBUTTON.H
C:\PROGRAM FILES (X86)\MICROSOFT VISUAL STUDIO 14.0\VC\ATLMFC\INCLUDE\AFXCONTROLBARIMPL.H
C:\PROGRAM FILES (X86)\MICROSOFT VISUAL STUDIO 14.0\VC\ATLMFC\INCLUDE\AFXCMDUSAGECOUNT.H
C:\PROGRAM FILES (X86)\MICROSOFT VISUAL STUDIO 14.0\VC\ATLMFC\INCLUDE\AFXCOMMANDMANAGER.H
C:\PROGRAM FILES (X86)\MICROSOFT VISUAL STUDIO 14.0\VC\ATLMFC\INCLUDE\AFXVISUALMANAGER.H
C:\PROGRAM FILES (X86)\MICROSOFT VISUAL STUDIO 14.0\VC\ATLMFC\INCLUDE\AFXGLOBALS.H
C:\PROGRAM FILES (X86)\MICROSOFT VISUAL STUDIO 14.0\VC\ATLMFC\INCLUDE\AFXACCESSIBILITY.H
C:\PROGRAM FILES (X86)\MICROSOFT VISUAL STUDIO 14.0\VC\ATLMFC\INCLUDE\AFXBASETOOLBAR.H
C:\PROGRAM FILES (X86)\MICROSOFT VISUAL STUDIO 14.0\VC\ATLMFC\INCLUDE\AFXPANE.H
C:\PROGRAM FILES (X86)\MICROSOFT VISUAL STUDIO 14.0\VC\ATLMFC\INCLUDE\AFXBASEPANE.H
C:\PROGRAM FILES (X86)\MICROSOFT VISUAL STUDIO 14.0\VC\ATLMFC\INCLUDE\AFXRECENTDOCKSITEINFO.H
C:\PROGRAM FILES (X86)\MICROSOFT VISUAL STUDIO 14.0\VC\ATLMFC\INCLUDE\AFXDRAGFRAMEIMPL.H
C:\PROGRAM FILES (X86)\MICROSOFT VISUAL STUDIO 14.0\VC\ATLMFC\INCLUDE\AFXSTATUSBAR.H
C:\PROGRAM FILES (X86)\MICROSOFT VISUAL STUDIO 14.0\VC\ATLMFC\INCLUDE\AFXMENUBAR.H
C:\PROGRAM FILES (X86)\MICROSOFT VISUAL STUDIO 14.0\VC\ATLMFC\INCLUDE\AFXPANEDIALOG.H
C:\PROGRAM FILES (X86)\MICROSOFT VISUAL STUDIO 14.0\VC\ATLMFC\INCLUDE\AFXDOCKABLEPANE.H
C:\PROGRAM FILES (X86)\MICROSOFT VISUAL STUDIO 14.0\VC\ATLMFC\INCLUDE\AFXMENUIMAGES.H
C:\PROGRAM FILES (X86)\MICROSOFT VISUAL STUDIO 14.0\VC\ATLMFC\INCLUDE\AFXPANECONTAINER.H
C:\PROGRAM FILES (X86)\MICROSOFT VISUAL STUDIO 14.0\VC\ATLMFC\INCLUDE\AFXCAPTIONBUTTON.H
C:\PROGRAM FILES (X86)\MICROSOFT VISUAL STUDIO 14.0\VC\ATLMFC\INCLUDE\AFXMULTIPANEFRAMEWND.H
C:\PROGRAM FILES (X86)\MICROSOFT VISUAL STUDIO 14.0\VC\ATLMFC\INCLUDE\AFXPANEFRAMEWND.H
C:\PROGRAM FILES (X86)\MICROSOFT VISUAL STUDIO 14.0\VC\ATLMFC\INCLUDE\AFXPANECONTAINERMANAGER.H
C:\PROGRAM FILES (X86)\MICROSOFT VISUAL STUDIO 14.0\VC\ATLMFC\INCLUDE\AFXPANEDIVIDER.H
C:\PROGRAM FILES (X86)\MICROSOFT VISUAL STUDIO 14.0\VC\ATLMFC\INCLUDE\AFXOUTLOOKBAR.H
C:\PROGRAM FILES (X86)\MICROSOFT VISUAL STUDIO 14.0\VC\ATLMFC\INCLUDE\AFXBASETABBEDPANE.H
C:\PROGRAM FILES (X86)\MICROSOFT VISUAL STUDIO 14.0\VC\ATLMFC\INCLUDE\AFXBASETABCTRL.H
C:\PROGRAM FILES (X86)\MICROSOFT VISUAL STUDIO 14.0\VC\ATLMFC\INCLUDE\AFXOUTLOOKBARTABCTRL.H
C:\PROGRAM FILES (X86)\MICROSOFT VISUAL STUDIO 14.0\VC\ATLMFC\INCLUDE\AFXRIBBONRES.H
C:\PROGRAM FILES (X86)\MICROSOFT VISUAL STUDIO 14.0\VC\ATLMFC\INCLUDE\AFXBUTTON.H
C:\PROGRAM FILES (X86)\MICROSOFT VISUAL STUDIO 14.0\VC\ATLMFC\INCLUDE\AFXTOOLBARSLISTCHECKBOX.H
C:\PROGRAM FILES (X86)\MICROSOFT VISUAL STUDIO 14.0\VC\ATLMFC\INCLUDE\AFXCOLORBAR.H
C:\PROGRAM FILES (X86)\MICROSOFT VISUAL STUDIO 14.0\VC\ATLMFC\INCLUDE\AFXPOPUPMENUBAR.H
C:\PROGRAM FILES (X86)\MICROSOFT VISUAL STUDIO 14.0\VC\ATLMFC\INCLUDE\AFXCAPTIONBAR.H
C:\PROGRAM FILES (X86)\MICROSOFT VISUAL STUDIO 14.0\VC\ATLMFC\INCLUDE\AFXOUTLOOKBARPANE.H
C:\PROGRAM FILES (X86)\MICROSOFT VISUAL STUDIO 14.0\VC\ATLMFC\INCLUDE\AFXTABBEDPANE.H
C:\PROGRAM FILES (X86)\MICROSOFT VISUAL STUDIO 14.0\VC\ATLMFC\INCLUDE\AFXTABCTRL.H
C:\PROGRAM FILES (X86)\MICROSOFT VISUAL STUDIO 14.0\VC\ATLMFC\INCLUDE\AFXTASKSPANE.H
C:\PROGRAM FILES (X86)\MICROSOFT VISUAL STUDIO 14.0\VC\ATLMFC\INCLUDE\AFXCAPTIONMENUBUTTON.H
C:\PROGRAM FILES (X86)\MICROSOFT VISUAL STUDIO 14.0\VC\ATLMFC\INCLUDE\AFXTASKSPANEFRAMEWND.H
C:\PROGRAM FILES (X86)\MICROSOFT VISUAL STUDIO 14.0\VC\ATLMFC\INCLUDE\AFXRIBBONBAR.H
C:\PROGRAM FILES (X86)\MICROSOFT VISUAL STUDIO 14.0\VC\ATLMFC\INCLUDE\AFXRIBBONBUTTON.H
C:\PROGRAM FILES (X86)\MICROSOFT VISUAL STUDIO 14.0\VC\ATLMFC\INCLUDE\AFXBASERIBBONELEMENT.H
C:\PROGRAM FILES (X86)\MICROSOFT VISUAL STUDIO 14.0\VC\ATLMFC\INCLUDE\AFXRIBBONQUICKACCESSTOOLBAR.H
C:\PROGRAM FILES (X86)\MICROSOFT VISUAL STUDIO 14.0\VC\ATLMFC\INCLUDE\AFXRIBBONBUTTONSGROUP.H
C:\PROGRAM FILES (X86)\MICROSOFT VISUAL STUDIO 14.0\VC\ATLMFC\INCLUDE\AFXRIBBONCUSTOMIZEDIALOG.H
C:\PROGRAM FILES (X86)\MICROSOFT VISUAL STUDIO 14.0\VC\ATLMFC\INCLUDE\AFXPROPERTYSHEET.H
C:\PROGRAM FILES (X86)\MICROSOFT VISUAL STUDIO 14.0\VC\ATLMFC\INCLUDE\AFXDIALOGIMPL.H
C:\PROGRAM FILES (X86)\MICROSOFT VISUAL STUDIO 14.0\VC\ATLMFC\INCLUDE\AFXPROPERTYPAGE.H
C:\PROGRAM FILES (X86)\MICROSOFT VISUAL STUDIO 14.0\VC\ATLMFC\INCLUDE\AFXRIBBONCOMMANDSLISTBOX.H
C:\PROGRAM FILES (X86)\MICROSOFT VISUAL STUDIO 14.0\VC\ATLMFC\INCLUDE\AFXRIBBONKEYBOARDCUSTOMIZEDIALOG.H
C:\PROGRAM FILES (X86)\MICROSOFT VISUAL STUDIO 14.0\VC\ATLMFC\INCLUDE\AFXDIALOGEX.H
C:\PROGRAM FILES (X86)\MICROSOFT VISUAL STUDIO 14.0\VC\ATLMFC\INCLUDE\AFXACCELERATORKEYASSIGNCTRL.H
C:\PROGRAM FILES (X86)\MICROSOFT VISUAL STUDIO 14.0\VC\ATLMFC\INCLUDE\AFXACCELERATORKEY.H
C:\PROGRAM FILES (X86)\MICROSOFT VISUAL STUDIO 14.0\VC\ATLMFC\INCLUDE\AFXRIBBONPANEL.H
C:\PROGRAM FILES (X86)\MICROSOFT VISUAL STUDIO 14.0\VC\ATLMFC\INCLUDE\AFXRIBBONMAINPANEL.H
C:\PROGRAM FILES (X86)\MICROSOFT VISUAL STUDIO 14.0\VC\ATLMFC\INCLUDE\AFXRIBBONPANELMENU.H
C:\PROGRAM FILES (X86)\MICROSOFT VISUAL STUDIO 14.0\VC\ATLMFC\INCLUDE\AFXPOPUPMENU.H
C:\PROGRAM FILES (X86)\MICROSOFT VISUAL STUDIO 14.0\VC\ATLMFC\INCLUDE\AFXRIBBONMINITOOLBAR.H
C:\PROGRAM FILES (X86)\MICROSOFT VISUAL STUDIO 14.0\VC\ATLMFC\INCLUDE\AFXRIBBONCATEGORY.H
C:\PROGRAM FILES (X86)\MICROSOFT VISUAL STUDIO 14.0\VC\ATLMFC\INCLUDE\AFXRIBBONLABEL.H
C:\PROGRAM FILES (X86)\MICROSOFT VISUAL STUDIO 14.0\VC\ATLMFC\INCLUDE\AFXRIBBONCOLORBUTTON.H
C:\PROGRAM FILES (X86)\MICROSOFT VISUAL STUDIO 14.0\VC\ATLMFC\INCLUDE\AFXRIBBONPALETTEGALLERY.H
C:\PROGRAM FILES (X86)\MICROSOFT VISUAL STUDIO 14.0\VC\ATLMFC\INCLUDE\AFXTOOLBARMENUBUTTON.H
C:\PROGRAM FILES (X86)\MICROSOFT VISUAL STUDIO 14.0\VC\ATLMFC\INCLUDE\AFXRIBBONEDIT.H
C:\PROGRAM FILES (X86)\MICROSOFT VISUAL STUDIO 14.0\VC\ATLMFC\INCLUDE\AFXRIBBONCOMBOBOX.H
C:\PROGRAM FILES (X86)\MICROSOFT VISUAL STUDIO 14.0\VC\ATLMFC\INCLUDE\AFXTOOLBARFONTCOMBOBOX.H
C:\PROGRAM FILES (X86)\MICROSOFT VISUAL STUDIO 14.0\VC\ATLMFC\INCLUDE\AFXTOOLBARCOMBOBOXBUTTON.H
C:\PROGRAM FILES (X86)\MICROSOFT VISUAL STUDIO 14.0\VC\ATLMFC\INCLUDE\AFXRIBBONCHECKBOX.H
C:\PROGRAM FILES (X86)\MICROSOFT VISUAL STUDIO 14.0\VC\ATLMFC\INCLUDE\AFXRIBBONSTATUSBAR.H
C:\PROGRAM FILES (X86)\MICROSOFT VISUAL STUDIO 14.0\VC\ATLMFC\INCLUDE\AFXRIBBONSTATUSBARPANE.H
C:\PROGRAM FILES (X86)\MICROSOFT VISUAL STUDIO 14.0\VC\ATLMFC\INCLUDE\AFXRIBBONSLIDER.H
C:\PROGRAM FILES (X86)\MICROSOFT VISUAL STUDIO 14.0\VC\ATLMFC\INCLUDE\AFXRIBBONPROGRESSBAR.H
C:\PROGRAM FILES (X86)\MICROSOFT VISUAL STUDIO 14.0\VC\ATLMFC\INCLUDE\AFXRIBBONLINKCTRL.H
C:\PROGRAM FILES (X86)\MICROSOFT VISUAL STUDIO 14.0\VC\ATLMFC\INCLUDE\AFXRIBBONUNDOBUTTON.H
C:\PROGRAM FILES (X86)\MICROSOFT VISUAL STUDIO 14.0\VC\ATLMFC\INCLUDE\AFXTOOLBAREDITBOXBUTTON.H
C:\PROGRAM FILES (X86)\MICROSOFT VISUAL STUDIO 14.0\VC\ATLMFC\INCLUDE\AFXEDITBROWSECTRL.H
C:\PROGRAM FILES (X86)\MICROSOFT VISUAL STUDIO 14.0\VC\ATLMFC\INCLUDE\AFXTOOLBARSPINEDITBOXBUTTON.H
C:\PROGRAM FILES (X86)\MICROSOFT VISUAL STUDIO 14.0\VC\ATLMFC\INCLUDE\AFXSPINBUTTONCTRL.H
C:\PROGRAM FILES (X86)\MICROSOFT VISUAL STUDIO 14.0\VC\ATLMFC\INCLUDE\AFXTOOLBARSYSTEMMENUBUTTON.H
C:\PROGRAM FILES (X86)\MICROSOFT VISUAL STUDIO 14.0\VC\ATLMFC\INCLUDE\AFXTOOLBARDATETIMECTRL.H
C:\PROGRAM FILES (X86)\MICROSOFT VISUAL STUDIO 14.0\VC\ATLMFC\INCLUDE\AFXDROPDOWNTOOLBAR.H
C:\PROGRAM FILES (X86)\MICROSOFT VISUAL STUDIO 14.0\VC\ATLMFC\INCLUDE\AFXCOLORMENUBUTTON.H
C:\PROGRAM FILES (X86)\MICROSOFT VISUAL STUDIO 14.0\VC\ATLMFC\INCLUDE\AFXOUTLOOKBARPANEBUTTON.H
C:\PROGRAM FILES (X86)\MICROSOFT VISUAL STUDIO 14.0\VC\ATLMFC\INCLUDE\AFXDROPDOWNLISTBOX.H
C:\PROGRAM FILES (X86)\MICROSOFT VISUAL STUDIO 14.0\VC\ATLMFC\INCLUDE\AFXAUTOHIDEBUTTON.H
C:\PROGRAM FILES (X86)\MICROSOFT VISUAL STUDIO 14.0\VC\ATLMFC\INCLUDE\AFXAUTOHIDEBAR.H
C:\PROGRAM FILES (X86)\MICROSOFT VISUAL STUDIO 14.0\VC\ATLMFC\INCLUDE\AFXFRAMEWNDEX.H
C:\PROGRAM FILES (X86)\MICROSOFT VISUAL STUDIO 14.0\VC\ATLMFC\INCLUDE\AFXFRAMEIMPL.H
C:\PROGRAM FILES (X86)\MICROSOFT VISUAL STUDIO 14.0\VC\ATLMFC\INCLUDE\AFXDOCKINGMANAGER.H
C:\PROGRAM FILES (X86)\MICROSOFT VISUAL STUDIO 14.0\VC\ATLMFC\INCLUDE\AFXSMARTDOCKINGMANAGER.H
C:\PROGRAM FILES (X86)\MICROSOFT VISUAL STUDIO 14.0\VC\ATLMFC\INCLUDE\AFXSMARTDOCKINGGUIDE.H
C:\PROGRAM FILES (X86)\MICROSOFT VISUAL STUDIO 14.0\VC\ATLMFC\INCLUDE\AFXSMARTDOCKINGHIGHLIGHTERWND.H
C:\PROGRAM FILES (X86)\MICROSOFT VISUAL STUDIO 14.0\VC\ATLMFC\INCLUDE\AFXFULLSCREENIMPL.H
C:\PROGRAM FILES (X86)\MICROSOFT VISUAL STUDIO 14.0\VC\ATLMFC\INCLUDE\AFXMDIFRAMEWNDEX.H
C:\PROGRAM FILES (X86)\MICROSOFT VISUAL STUDIO 14.0\VC\ATLMFC\INCLUDE\AFXMDICLIENTAREAWND.H
C:\PROGRAM FILES (X86)\MICROSOFT VISUAL STUDIO 14.0\VC\ATLMFC\INCLUDE\AFXMDICHILDWNDEX.H
C:\PROGRAM FILES (X86)\MICROSOFT VISUAL STUDIO 14.0\VC\ATLMFC\INCLUDE\AFXOLEIPFRAMEWNDEX.H
C:\PROGRAM FILES (X86)\MICROSOFT VISUAL STUDIO 14.0\VC\ATLMFC\INCLUDE\AFXOLEDOCIPFRAMEWNDEX.H
C:\PROGRAM FILES (X86)\MICROSOFT VISUAL STUDIO 14.0\VC\ATLMFC\INCLUDE\AFXDOCOB.H
C:\PROGRAM FILES (X86)\MICROSOFT VISUAL STUDIO 14.0\VC\ATLMFC\INCLUDE\AFXOLECNTRFRAMEWNDEX.H
C:\PROGRAM FILES (X86)\MICROSOFT VISUAL STUDIO 14.0\VC\ATLMFC\INCLUDE\AFXPRIV.H
C:\PROGRAM FILES (X86)\MICROSOFT VISUAL STUDIO 14.0\VC\ATLMFC\INCLUDE\AFXADV.H
C:\PROGRAM FILES (X86)\MICROSOFT VISUAL STUDIO 14.0\VC\ATLMFC\INCLUDE\AFXCONV.H
C:\PROGRAM FILES (X86)\MICROSOFT VISUAL STUDIO 14.0\VC\ATLMFC\INCLUDE\AFXPRIV2.H
C:\PROGRAM FILES (X86)\MICROSOFT VISUAL STUDIO 14.0\VC\ATLMFC\INCLUDE\AFXTOOLBARSCUSTOMIZEDIALOG.H
C:\PROGRAM FILES (X86)\MICROSOFT VISUAL STUDIO 14.0\VC\ATLMFC\INCLUDE\AFXTOOLBARSLISTPROPERTYPAGE.H
C:\PROGRAM FILES (X86)\MICROSOFT VISUAL STUDIO 14.0\VC\ATLMFC\INCLUDE\AFXTOOLBARBUTTONSLISTBUTTON.H
C:\PROGRAM FILES (X86)\MICROSOFT VISUAL STUDIO 14.0\VC\ATLMFC\INCLUDE\AFXTOOLBARSCOMMANDSLISTBOX.H
C:\PROGRAM FILES (X86)\MICROSOFT VISUAL STUDIO 14.0\VC\ATLMFC\INCLUDE\AFXTOOLBARSTOOLSPROPERTYPAGE.H
C:\PROGRAM FILES (X86)\MICROSOFT VISUAL STUDIO 14.0\VC\ATLMFC\INCLUDE\AFXVSLISTBOX.H
C:\PROGRAM FILES (X86)\MICROSOFT VISUAL STUDIO 14.0\VC\ATLMFC\INCLUDE\AFXMENUBUTTON.H
C:\PROGRAM FILES (X86)\MICROSOFT VISUAL STUDIO 14.0\VC\ATLMFC\INCLUDE\AFXTOOLBARSMENUPROPERTYPAGE.H
C:\PROGRAM FILES (X86)\MICROSOFT VISUAL STUDIO 14.0\VC\ATLMFC\INCLUDE\AFXMOUSEPROPERTYPAGE.H
C:\PROGRAM FILES (X86)\MICROSOFT VISUAL STUDIO 14.0\VC\ATLMFC\INCLUDE\AFXTOOLBARSKEYBOARDPROPERTYPAGE.H
C:\PROGRAM FILES (X86)\MICROSOFT VISUAL STUDIO 14.0\VC\ATLMFC\INCLUDE\AFXTOOLBARSOPTIONSPROPERTYPAGE.H
C:\PROGRAM FILES (X86)\MICROSOFT VISUAL STUDIO 14.0\VC\ATLMFC\INCLUDE\AFXCUSTOMIZEMENUBUTTON.H
C:\PROGRAM FILES (X86)\MICROSOFT VISUAL STUDIO 14.0\VC\ATLMFC\INCLUDE\AFXCONTEXTMENUMANAGER.H
C:\PROGRAM FILES (X86)\MICROSOFT VISUAL STUDIO 14.0\VC\ATLMFC\INCLUDE\AFXKEYBOARDMANAGER.H
C:\PROGRAM FILES (X86)\MICROSOFT VISUAL STUDIO 14.0\VC\ATLMFC\INCLUDE\AFXMOUSEMANAGER.H
C:\PROGRAM FILES (X86)\MICROSOFT VISUAL STUDIO 14.0\VC\ATLMFC\INCLUDE\AFXWINAPPEX.H
C:\PROGRAM FILES (X86)\MICROSOFT VISUAL STUDIO 14.0\VC\ATLMFC\INCLUDE\AFXSETTINGSSTORE.H
C:\PROGRAM FILES (X86)\MICROSOFT VISUAL STUDIO 14.0\VC\ATLMFC\INCLUDE\AFXREBARSTATE.H
C:\PROGRAM FILES (X86)\MICROSOFT VISUAL STUDIO 14.0\VC\ATLMFC\INCLUDE\AFXMENUTEAROFFMANAGER.H
C:\PROGRAM FILES (X86)\MICROSOFT VISUAL STUDIO 14.0\VC\ATLMFC\INCLUDE\AFXDRAWMANAGER.H
C:\PROGRAM FILES (X86)\MICROSOFT VISUAL STUDIO 14.0\VC\ATLMFC\INCLUDE\AFXDOCKINGPANESROW.H
C:\PROGRAM FILES (X86)\MICROSOFT VISUAL STUDIO 14.0\VC\ATLMFC\INCLUDE\AFXTOOLTIPMANAGER.H
C:\PROGRAM FILES (X86)\MICROSOFT VISUAL STUDIO 14.0\VC\ATLMFC\INCLUDE\AFXTOOLTIPCTRL.H
C:\PROGRAM FILES (X86)\MICROSOFT VISUAL STUDIO 14.0\VC\ATLMFC\INCLUDE\AFXCONTROLRENDERER.H
C:\PROGRAM FILES (X86)\MICROSOFT VISUAL STUDIO 14.0\VC\ATLMFC\INCLUDE\AFXDOCKABLEPANEADAPTER.H
C:\PROGRAM FILES (X86)\MICROSOFT VISUAL STUDIO 14.0\VC\ATLMFC\INCLUDE\AFXDOCKSITE.H
C:\PROGRAM FILES (X86)\MICROSOFT VISUAL STUDIO 14.0\VC\ATLMFC\INCLUDE\AFXCOLORBUTTON.H
C:\PROGRAM FILES (X86)\MICROSOFT VISUAL STUDIO 14.0\VC\ATLMFC\INCLUDE\AFXLINKCTRL.H
C:\PROGRAM FILES (X86)\MICROSOFT VISUAL STUDIO 14.0\VC\ATLMFC\INCLUDE\AFXCOLORPICKERCTRL.H
C:\PROGRAM FILES (X86)\MICROSOFT VISUAL STUDIO 14.0\VC\ATLMFC\INCLUDE\AFXFONTCOMBOBOX.H
C:\PROGRAM FILES (X86)\MICROSOFT VISUAL STUDIO 14.0\VC\ATLMFC\INCLUDE\AFXREBAR.H
C:\PROGRAM FILES (X86)\MICROSOFT VISUAL STUDIO 14.0\VC\ATLMFC\INCLUDE\AFXSHELLTREECTRL.H
C:\PROGRAM FILES (X86)\MICROSOFT VISUAL STUDIO 14.0\VC\ATLMFC\INCLUDE\AFXSHELLMANAGER.H
C:\PROGRAM FILES (X86)\MICROSOFT VISUAL STUDIO 14.0\VC\ATLMFC\INCLUDE\AFXSHELLLISTCTRL.H
C:\PROGRAM FILES (X86)\MICROSOFT VISUAL STUDIO 14.0\VC\ATLMFC\INCLUDE\AFXLISTCTRL.H
C:\PROGRAM FILES (X86)\MICROSOFT VISUAL STUDIO 14.0\VC\ATLMFC\INCLUDE\AFXHEADERCTRL.H
C:\PROGRAM FILES (X86)\MICROSOFT VISUAL STUDIO 14.0\VC\ATLMFC\INCLUDE\AFXPROPERTYGRIDCTRL.H
C:\PROGRAM FILES (X86)\MICROSOFT VISUAL STUDIO 14.0\VC\INCLUDE\COMDEF.H
C:\PROGRAM FILES (X86)\MICROSOFT VISUAL STUDIO 14.0\VC\INCLUDE\COMUTIL.H
C:\PROGRAM FILES (X86)\MICROSOFT VISUAL STUDIO 14.0\VC\INCLUDE\COMIP.H
C:\PROGRAM FILES (X86)\MICROSOFT VISUAL STUDIO 14.0\VC\INCLUDE\COMDEFSP.H
C:\PROGRAM FILES (X86)\MICROSOFT VISUAL STUDIO 14.0\VC\ATLMFC\INCLUDE\AFXCOLORPOPUPMENU.H
C:\PROGRAM FILES (X86)\MICROSOFT VISUAL STUDIO 14.0\VC\ATLMFC\INCLUDE\AFXPROPERTYGRIDTOOLTIPCTRL.H
C:\PROGRAM FILES (X86)\MICROSOFT VISUAL STUDIO 14.0\VC\ATLMFC\INCLUDE\AFXMASKEDEDIT.H
C:\PROGRAM FILES (X86)\MICROSOFT VISUAL STUDIO 14.0\VC\ATLMFC\INCLUDE\AFXSPLITTERWNDEX.H
C:\PROGRAM FILES (X86)\MICROSOFT VISUAL STUDIO 14.0\VC\ATLMFC\INCLUDE\AFXDESKTOPALERTWND.H
C:\PROGRAM FILES (X86)\MICROSOFT VISUAL STUDIO 14.0\VC\ATLMFC\INCLUDE\AFXDESKTOPALERTDIALOG.H
C:\PROGRAM FILES (X86)\MICROSOFT VISUAL STUDIO 14.0\VC\ATLMFC\INCLUDE\AFXWINDOWSMANAGERDIALOG.H
C:\PROGRAM FILES (X86)\MICROSOFT VISUAL STUDIO 14.0\VC\ATLMFC\INCLUDE\AFXPREVIEWVIEWEX.H
C:\PROGRAM FILES (X86)\MICROSOFT VISUAL STUDIO 14.0\VC\ATLMFC\INCLUDE\AFXIMAGEEDITORDIALOG.H
C:\PROGRAM FILES (X86)\MICROSOFT VISUAL STUDIO 14.0\VC\ATLMFC\INCLUDE\AFXIMAGEPAINTAREA.H
C:\PROGRAM FILES (X86)\MICROSOFT VISUAL STUDIO 14.0\VC\ATLMFC\INCLUDE\AFXCOLORDIALOG.H
C:\PROGRAM FILES (X86)\MICROSOFT VISUAL STUDIO 14.0\VC\ATLMFC\INCLUDE\AFXSTANDARDCOLORSPROPERTYPAGE.H
C:\PROGRAM FILES (X86)\MICROSOFT VISUAL STUDIO 14.0\VC\ATLMFC\INCLUDE\AFXCUSTOMCOLORSPROPERTYPAGE.H
C:\PROGRAM FILES (X86)\MICROSOFT VISUAL STUDIO 14.0\VC\ATLMFC\INCLUDE\AFXKEYMAPDIALOG.H
C:\PROGRAM FILES (X86)\MICROSOFT VISUAL STUDIO 14.0\VC\ATLMFC\INCLUDE\AFXTABVIEW.H
C:\PROGRAM FILES (X86)\MICROSOFT VISUAL STUDIO 14.0\VC\ATLMFC\INCLUDE\AFXVISUALMANAGEROFFICEXP.H
C:\PROGRAM FILES (X86)\MICROSOFT VISUAL STUDIO 14.0\VC\ATLMFC\INCLUDE\AFXVISUALMANAGERWINDOWS.H
C:\PROGRAM FILES (X86)\MICROSOFT VISUAL STUDIO 14.0\VC\ATLMFC\INCLUDE\AFXVISUALMANAGEROFFICE2003.H
C:\PROGRAM FILES (X86)\MICROSOFT VISUAL STUDIO 14.0\VC\ATLMFC\INCLUDE\AFXVISUALMANAGERVS2005.H
C:\PROGRAM FILES (X86)\MICROSOFT VISUAL STUDIO 14.0\VC\ATLMFC\INCLUDE\AFXVISUALMANAGERVS2008.H
C:\PROGRAM FILES (X86)\MICROSOFT VISUAL STUDIO 14.0\VC\ATLMFC\INCLUDE\AFXVISUALMANAGEROFFICE2007.H
C:\PROGRAM FILES (X86)\MICROSOFT VISUAL STUDIO 14.0\VC\ATLMFC\INCLUDE\AFXVISUALMANAGERWINDOWS7.H
C:\PROGRAM FILES (X86)\MICROSOFT VISUAL STUDIO 14.0\VC\ATLMFC\INCLUDE\AFXOLESERVERDOCEX.H
C:\PROGRAM FILES (X86)\MICROSOFT VISUAL STUDIO 14.0\VC\ATLMFC\INCLUDE\AFXGLOBALUTILS.H
C:\PROGRAM FILES (X86)\MICROSOFT VISUAL STUDIO 14.0\VC\BIN\1033\MSPFT140UI.DLL
C:\WINDOWS\SYSTEM32\MSXML6R.DLL
C:\PROGRAM FILES (X86)\MICROSOFT VISUAL STUDIO 14.0\VC\BIN\1033\LOCALESPCUI.DLL
^C:\USERS\MEIRAJL.SKYSOFT\DOCUMENTS\DEVELOPMENT\TECHNICAL VALIDATION\TECHNICAL VALIDATION\ADEXP.CPP
C:\USERS\MEIRAJL.SKYSOFT\DOCUMENTS\DEVELOPMENT\TECHNICAL VALIDATION\TECHNICAL VALIDATION\X64\RELEASE\TECHNICAL VALIDATION.PCH.CODEANALYSIS
C:\USERS\MEIRAJL.SKYSOFT\DOCUMENTS\DEVELOPMENT\TECHNICAL VALIDATION\TECHNICAL VALIDATION\ADEXP.H
C:\USERS\MEIRAJL.SKYSOFT\DOCUMENTS\DEVELOPMENT\TECHNICAL VALIDATION\TECHNICAL VALIDATION\STRINGUTIL.H
C:\USERS\MEIRAJL.SKYSOFT\DOCUMENTS\DEVELOPMENT\TECHNICAL VALIDATION\TECHNICAL VALIDATION\X64\RELEASE\TECHNICAL VALIDATION.PCH.CODEANALYSISAST
^C:\USERS\MEIRAJL.SKYSOFT\DOCUMENTS\DEVELOPMENT\TECHNICAL VALIDATION\TECHNICAL VALIDATION\ADJACENTFIR.CPP
C:\USERS\MEIRAJL.SKYSOFT\DOCUMENTS\DEVELOPMENT\TECHNICAL VALIDATION\TECHNICAL VALIDATION\X64\RELEASE\TECHNICAL VALIDATION.PCH.CODEANALYSIS
C:\USERS\MEIRAJL.SKYSOFT\DOCUMENTS\DEVELOPMENT\TECHNICAL VALIDATION\TECHNICAL VALIDATION\RESOURCE.H
C:\USERS\MEIRAJL.SKYSOFT\DOCUMENTS\DEVELOPMENT\TECHNICAL VALIDATION\TECHNICAL VALIDATION\ADJACENTFIR.H
C:\USERS\MEIRAJL.SKYSOFT\DOCUMENTS\DEVELOPMENT\TECHNICAL VALIDATION\TECHNICAL VALIDATION\COMMONOBJECT.H
C:\USERS\MEIRAJL.SKYSOFT\DOCUMENTS\DEVELOPMENT\TECHNICAL VALIDATION\TECHNICAL VALIDATION\ADEXP.H
C:\USERS\MEIRAJL.SKYSOFT\DOCUMENTS\DEVELOPMENT\TECHNICAL VALIDATION\TECHNICAL VALIDATION\INIFILE.H
C:\USERS\MEIRAJL.SKYSOFT\DOCUMENTS\DEVELOPMENT\TECHNICAL VALIDATION\TECHNICAL VALIDATION\STRINGUTIL.H
C:\USERS\MEIRAJL.SKYSOFT\DOCUMENTS\DEVELOPMENT\TECHNICAL VALIDATION\TECHNICAL VALIDATION\FPLDOC.H
C:\USERS\MEIRAJL.SKYSOFT\DOCUMENTS\DEVELOPMENT\TECHNICAL VALIDATION\TECHNICAL VALIDATION\FPLWND.H
C:\USERS\MEIRAJL.SKYSOFT\DOCUMENTS\DEVELOPMENT\TECHNICAL VALIDATION\TECHNICAL VALIDATION\FLIGHTPLAN.H
C:\USERS\MEIRAJL.SKYSOFT\DOCUMENTS\DEVELOPMENT\TECHNICAL VALIDATION\TECHNICAL VALIDATION\OURCONSTANTS.H
C:\USERS\MEIRAJL.SKYSOFT\DOCUMENTS\DEVELOPMENT\TECHNICAL VALIDATION\TECHNICAL VALIDATION\CONDITION.H
C:\USERS\MEIRAJL.SKYSOFT\DOCUMENTS\DEVELOPMENT\TECHNICAL VALIDATION\TECHNICAL VALIDATION\X64\RELEASE\TECHNICAL VALIDATION.PCH.CODEANALYSISAST
C:\PROGRAM FILES (X86)\MICROSOFT VISUAL STUDIO 14.0\VC\BIN\1033\MSPFT140UI.DLL
C:\WINDOWS\SYSTEM32\MSXML6R.DLL
^C:\USERS\MEIRAJL.SKYSOFT\DOCUMENTS\DEVELOPMENT\TECHNICAL VALIDATION\TECHNICAL VALIDATION\AIRWAYS.CPP
C:\USERS\MEIRAJL.SKYSOFT\DOCUMENTS\DEVELOPMENT\TECHNICAL VALIDATION\TECHNICAL VALIDATION\X64\RELEASE\TECHNICAL VALIDATION.PCH.CODEANALYSIS
C:\USERS\MEIRAJL.SKYSOFT\DOCUMENTS\DEVELOPMENT\TECHNICAL VALIDATION\TECHNICAL VALIDATION\AIRWAYS.H
C:\USERS\MEIRAJL.SKYSOFT\DOCUMENTS\DEVELOPMENT\TECHNICAL VALIDATION\TECHNICAL VALIDATION\COMMONOBJECT.H
C:\USERS\MEIRAJL.SKYSOFT\DOCUMENTS\DEVELOPMENT\TECHNICAL VALIDATION\TECHNICAL VALIDATION\STRINGUTIL.H
C:\USERS\MEIRAJL.SKYSOFT\DOCUMENTS\DEVELOPMENT\TECHNICAL VALIDATION\TECHNICAL VALIDATION\X64\RELEASE\TECHNICAL VALIDATION.PCH.CODEANALYSISAST
C:\PROGRAM FILES (X86)\MICROSOFT VISUAL STUDIO 14.0\VC\BIN\1033\MSPFT140UI.DLL
C:\WINDOWS\SYSTEM32\MSXML6R.DLL
^C:\USERS\MEIRAJL.SKYSOFT\DOCUMENTS\DEVELOPMENT\TECHNICAL VALIDATION\TECHNICAL VALIDATION\AREA.CPP
C:\USERS\MEIRAJL.SKYSOFT\DOCUMENTS\DEVELOPMENT\TECHNICAL VALIDATION\TECHNICAL VALIDATION\X64\RELEASE\TECHNICAL VALIDATION.PCH.CODEANALYSIS
C:\USERS\MEIRAJL.SKYSOFT\DOCUMENTS\DEVELOPMENT\TECHNICAL VALIDATION\TECHNICAL VALIDATION\AREA.H
C:\USERS\MEIRAJL.SKYSOFT\DOCUMENTS\DEVELOPMENT\TECHNICAL VALIDATION\TECHNICAL VALIDATION\INIFILE.H
C:\USERS\MEIRAJL.SKYSOFT\DOCUMENTS\DEVELOPMENT\TECHNICAL VALIDATION\TECHNICAL VALIDATION\STRINGUTIL.H
C:\PROGRAM FILES (X86)\WINDOWS KITS\10\INCLUDE\10.0.10240.0\UCRT\MATH.H
C:\USERS\MEIRAJL.SKYSOFT\DOCUMENTS\DEVELOPMENT\TECHNICAL VALIDATION\TECHNICAL VALIDATION\FPLDOC.H
C:\USERS\MEIRAJL.SKYSOFT\DOCUMENTS\DEVELOPMENT\TECHNICAL VALIDATION\TECHNICAL VALIDATION\FPLWND.H
C:\USERS\MEIRAJL.SKYSOFT\DOCUMENTS\DEVELOPMENT\TECHNICAL VALIDATION\TECHNICAL VALIDATION\FLIGHTPLAN.H
C:\USERS\MEIRAJL.SKYSOFT\DOCUMENTS\DEVELOPMENT\TECHNICAL VALIDATION\TECHNICAL VALIDATION\ADEXP.H
C:\USERS\MEIRAJL.SKYSOFT\DOCUMENTS\DEVELOPMENT\TECHNICAL VALIDATION\TECHNICAL VALIDATION\OURCONSTANTS.H
C:\USERS\MEIRAJL.SKYSOFT\DOCUMENTS\DEVELOPMENT\TECHNICAL VALIDATION\TECHNICAL VALIDATION\CONDITION.H
C:\USERS\MEIRAJL.SKYSOFT\DOCUMENTS\DEVELOPMENT\TECHNICAL VALIDATION\TECHNICAL VALIDATION\COMMONOBJECT.H
C:\USERS\MEIRAJL.SKYSOFT\DOCUMENTS\DEVELOPMENT\TECHNICAL VALIDATION\TECHNICAL VALIDATION\ADJACENTFIR.H
C:\USERS\MEIRAJL.SKYSOFT\DOCUMENTS\DEVELOPMENT\TECHNICAL VALIDATION\TECHNICAL VALIDATION\GEO.H
C:\USERS\MEIRAJL.SKYSOFT\DOCUMENTS\DEVELOPMENT\TECHNICAL VALIDATION\TECHNICAL VALIDATION\LIMITPOINTS.H
C:\USERS\MEIRAJL.SKYSOFT\DOCUMENTS\DEVELOPMENT\TECHNICAL VALIDATION\TECHNICAL VALIDATION\TECHNICAL VALIDATION.H
C:\USERS\MEIRAJL.SKYSOFT\DOCUMENTS\DEVELOPMENT\TECHNICAL VALIDATION\TECHNICAL VALIDATION\RESOURCE.H
C:\USERS\MEIRAJL.SKYSOFT\DOCUMENTS\DEVELOPMENT\TECHNICAL VALIDATION\TECHNICAL VALIDATION\OFFLINE.H
C:\USERS\MEIRAJL.SKYSOFT\DOCUMENTS\DEVELOPMENT\TECHNICAL VALIDATION\TECHNICAL VALIDATION\EXCDT.H
C:\USERS\MEIRAJL.SKYSOFT\DOCUMENTS\DEVELOPMENT\TECHNICAL VALIDATION\TECHNICAL VALIDATION\X64\RELEASE\TECHNICAL VALIDATION.PCH.CODEANALYSISAST
C:\PROGRAM FILES (X86)\MICROSOFT VISUAL STUDIO 14.0\VC\BIN\1033\MSPFT140UI.DLL
C:\WINDOWS\SYSTEM32\MSXML6R.DLL
^C:\USERS\MEIRAJL.SKYSOFT\DOCUMENTS\DEVELOPMENT\TECHNICAL VALIDATION\TECHNICAL VALIDATION\COMMONOBJECT.CPP
C:\USERS\MEIRAJL.SKYSOFT\DOCUMENTS\DEVELOPMENT\TECHNICAL VALIDATION\TECHNICAL VALIDATION\X64\RELEASE\TECHNICAL VALIDATION.PCH.CODEANALYSIS
C:\USERS\MEIRAJL.SKYSOFT\DOCUMENTS\DEVELOPMENT\TECHNICAL VALIDATION\TECHNICAL VALIDATION\COMMONOBJECT.H
C:\USERS\MEIRAJL.SKYSOFT\DOCUMENTS\DEVELOPMENT\TECHNICAL VALIDATION\TECHNICAL VALIDATION\X64\RELEASE\TECHNICAL VALIDATION.PCH.CODEANALYSISAST
C:\PROGRAM FILES (X86)\MICROSOFT VISUAL STUDIO 14.0\VC\BIN\1033\MSPFT140UI.DLL
C:\WINDOWS\SYSTEM32\MSXML6R.DLL
^C:\USERS\MEIRAJL.SKYSOFT\DOCUMENTS\DEVELOPMENT\TECHNICAL VALIDATION\TECHNICAL VALIDATION\CONDITION.CPP
C:\USERS\MEIRAJL.SKYSOFT\DOCUMENTS\DEVELOPMENT\TECHNICAL VALIDATION\TECHNICAL VALIDATION\X64\RELEASE\TECHNICAL VALIDATION.PCH.CODEANALYSIS
C:\USERS\MEIRAJL.SKYSOFT\DOCUMENTS\DEVELOPMENT\TECHNICAL VALIDATION\TECHNICAL VALIDATION\CONDITION.H
C:\USERS\MEIRAJL.SKYSOFT\DOCUMENTS\DEVELOPMENT\TECHNICAL VALIDATION\TECHNICAL VALIDATION\COMMONOBJECT.H
C:\USERS\MEIRAJL.SKYSOFT\DOCUMENTS\DEVELOPMENT\TECHNICAL VALIDATION\TECHNICAL VALIDATION\STRINGUTIL.H
C:\USERS\MEIRAJL.SKYSOFT\DOCUMENTS\DEVELOPMENT\TECHNICAL VALIDATION\TECHNICAL VALIDATION\INIFILE.H
C:\USERS\MEIRAJL.SKYSOFT\DOCUMENTS\DEVELOPMENT\TECHNICAL VALIDATION\TECHNICAL VALIDATION\X64\RELEASE\TECHNICAL VALIDATION.PCH.CODEANALYSISAST
C:\PROGRAM FILES (X86)\MICROSOFT VISUAL STUDIO 14.0\VC\BIN\1033\MSPFT140UI.DLL
C:\WINDOWS\SYSTEM32\MSXML6R.DLL
^C:\USERS\MEIRAJL.SKYSOFT\DOCUMENTS\DEVELOPMENT\TECHNICAL VALIDATION\TECHNICAL VALIDATION\EXCDT.CPP
C:\USERS\MEIRAJL.SKYSOFT\DOCUMENTS\DEVELOPMENT\TECHNICAL VALIDATION\TECHNICAL VALIDATION\X64\RELEASE\TECHNICAL VALIDATION.PCH.CODEANALYSIS
C:\USERS\MEIRAJL.SKYSOFT\DOCUMENTS\DEVELOPMENT\TECHNICAL VALIDATION\TECHNICAL VALIDATION\EXCDT.H
C:\USERS\MEIRAJL.SKYSOFT\DOCUMENTS\DEVELOPMENT\TECHNICAL VALIDATION\TECHNICAL VALIDATION\RESOURCE.H
C:\USERS\MEIRAJL.SKYSOFT\DOCUMENTS\DEVELOPMENT\TECHNICAL VALIDATION\TECHNICAL VALIDATION\TECHNICAL VALIDATION.H
C:\USERS\MEIRAJL.SKYSOFT\DOCUMENTS\DEVELOPMENT\TECHNICAL VALIDATION\TECHNICAL VALIDATION\FLIGHTPLAN.H
C:\USERS\MEIRAJL.SKYSOFT\DOCUMENTS\DEVELOPMENT\TECHNICAL VALIDATION\TECHNICAL VALIDATION\ADEXP.H
C:\USERS\MEIRAJL.SKYSOFT\DOCUMENTS\DEVELOPMENT\TECHNICAL VALIDATION\TECHNICAL VALIDATION\OURCONSTANTS.H
C:\USERS\MEIRAJL.SKYSOFT\DOCUMENTS\DEVELOPMENT\TECHNICAL VALIDATION\TECHNICAL VALIDATION\OFFLINE.H
C:\USERS\MEIRAJL.SKYSOFT\DOCUMENTS\DEVELOPMENT\TECHNICAL VALIDATION\TECHNICAL VALIDATION\FPLDOC.H
C:\USERS\MEIRAJL.SKYSOFT\DOCUMENTS\DEVELOPMENT\TECHNICAL VALIDATION\TECHNICAL VALIDATION\FPLWND.H
C:\USERS\MEIRAJL.SKYSOFT\DOCUMENTS\DEVELOPMENT\TECHNICAL VALIDATION\TECHNICAL VALIDATION\CONDITION.H
C:\USERS\MEIRAJL.SKYSOFT\DOCUMENTS\DEVELOPMENT\TECHNICAL VALIDATION\TECHNICAL VALIDATION\COMMONOBJECT.H
C:\USERS\MEIRAJL.SKYSOFT\DOCUMENTS\DEVELOPMENT\TECHNICAL VALIDATION\TECHNICAL VALIDATION\X64\RELEASE\TECHNICAL VALIDATION.PCH.CODEANALYSISAST
C:\PROGRAM FILES (X86)\MICROSOFT VISUAL STUDIO 14.0\VC\BIN\1033\MSPFT140UI.DLL
C:\WINDOWS\SYSTEM32\MSXML6R.DLL
^C:\USERS\MEIRAJL.SKYSOFT\DOCUMENTS\DEVELOPMENT\TECHNICAL VALIDATION\TECHNICAL VALIDATION\FONTMNGR.CPP
C:\USERS\MEIRAJL.SKYSOFT\DOCUMENTS\DEVELOPMENT\TECHNICAL VALIDATION\TECHNICAL VALIDATION\X64\RELEASE\TECHNICAL VALIDATION.PCH.CODEANALYSIS
C:\USERS\MEIRAJL.SKYSOFT\DOCUMENTS\DEVELOPMENT\TECHNICAL VALIDATION\TECHNICAL VALIDATION\FONTMNGR.H
C:\USERS\MEIRAJL.SKYSOFT\DOCUMENTS\DEVELOPMENT\TECHNICAL VALIDATION\TECHNICAL VALIDATION\X64\RELEASE\TECHNICAL VALIDATION.PCH.CODEANALYSISAST
C:\PROGRAM FILES (X86)\MICROSOFT VISUAL STUDIO 14.0\VC\BIN\1033\MSPFT140UI.DLL
C:\WINDOWS\SYSTEM32\MSXML6R.DLL
^C:\USERS\MEIRAJL.SKYSOFT\DOCUMENTS\DEVELOPMENT\TECHNICAL VALIDATION\TECHNICAL VALIDATION\FPLDLG.CPP
C:\USERS\MEIRAJL.SKYSOFT\DOCUMENTS\DEVELOPMENT\TECHNICAL VALIDATION\TECHNICAL VALIDATION\X64\RELEASE\TECHNICAL VALIDATION.PCH.CODEANALYSIS
C:\USERS\MEIRAJL.SKYSOFT\DOCUMENTS\DEVELOPMENT\TECHNICAL VALIDATION\TECHNICAL VALIDATION\FPLDLG.H
C:\USERS\MEIRAJL.SKYSOFT\DOCUMENTS\DEVELOPMENT\TECHNICAL VALIDATION\TECHNICAL VALIDATION\RESOURCE.H
C:\USERS\MEIRAJL.SKYSOFT\DOCUMENTS\DEVELOPMENT\TECHNICAL VALIDATION\TECHNICAL VALIDATION\TECHNICAL VALIDATION.H
C:\USERS\MEIRAJL.SKYSOFT\DOCUMENTS\DEVELOPMENT\TECHNICAL VALIDATION\TECHNICAL VALIDATION\FLIGHTPLAN.H
C:\USERS\MEIRAJL.SKYSOFT\DOCUMENTS\DEVELOPMENT\TECHNICAL VALIDATION\TECHNICAL VALIDATION\ADEXP.H
C:\USERS\MEIRAJL.SKYSOFT\DOCUMENTS\DEVELOPMENT\TECHNICAL VALIDATION\TECHNICAL VALIDATION\OURCONSTANTS.H
C:\USERS\MEIRAJL.SKYSOFT\DOCUMENTS\DEVELOPMENT\TECHNICAL VALIDATION\TECHNICAL VALIDATION\OFFLINE.H
C:\USERS\MEIRAJL.SKYSOFT\DOCUMENTS\DEVELOPMENT\TECHNICAL VALIDATION\TECHNICAL VALIDATION\FPLDOC.H
C:\USERS\MEIRAJL.SKYSOFT\DOCUMENTS\DEVELOPMENT\TECHNICAL VALIDATION\TECHNICAL VALIDATION\FPLWND.H
C:\USERS\MEIRAJL.SKYSOFT\DOCUMENTS\DEVELOPMENT\TECHNICAL VALIDATION\TECHNICAL VALIDATION\CONDITION.H
C:\USERS\MEIRAJL.SKYSOFT\DOCUMENTS\DEVELOPMENT\TECHNICAL VALIDATION\TECHNICAL VALIDATION\COMMONOBJECT.H
C:\USERS\MEIRAJL.SKYSOFT\DOCUMENTS\DEVELOPMENT\TECHNICAL VALIDATION\TECHNICAL VALIDATION\EXCDT.H
C:\USERS\MEIRAJL.SKYSOFT\DOCUMENTS\DEVELOPMENT\TECHNICAL VALIDATION\TECHNICAL VALIDATION\X64\RELEASE\TECHNICAL VALIDATION.PCH.CODEANALYSISAST
C:\PROGRAM FILES (X86)\MICROSOFT VISUAL STUDIO 14.0\VC\BIN\1033\MSPFT140UI.DLL
C:\WINDOWS\SYSTEM32\MSXML6R.DLL
^C:\USERS\MEIRAJL.SKYSOFT\DOCUMENTS\DEVELOPMENT\TECHNICAL VALIDATION\TECHNICAL VALIDATION\OFFLINEERROR.CPP
C:\USERS\MEIRAJL.SKYSOFT\DOCUMENTS\DEVELOPMENT\TECHNICAL VALIDATION\TECHNICAL VALIDATION\X64\RELEASE\TECHNICAL VALIDATION.PCH.CODEANALYSIS
C:\USERS\MEIRAJL.SKYSOFT\DOCUMENTS\DEVELOPMENT\TECHNICAL VALIDATION\TECHNICAL VALIDATION\OFFLINEERROR.H
C:\USERS\MEIRAJL.SKYSOFT\DOCUMENTS\DEVELOPMENT\TECHNICAL VALIDATION\TECHNICAL VALIDATION\RESOURCE.H
C:\USERS\MEIRAJL.SKYSOFT\DOCUMENTS\DEVELOPMENT\TECHNICAL VALIDATION\TECHNICAL VALIDATION\X64\RELEASE\TECHNICAL VALIDATION.PCH.CODEANALYSISAST
C:\PROGRAM FILES (X86)\MICROSOFT VISUAL STUDIO 14.0\VC\BIN\1033\MSPFT140UI.DLL
C:\WINDOWS\SYSTEM32\MSXML6R.DLL
^C:\USERS\MEIRAJL.SKYSOFT\DOCUMENTS\DEVELOPMENT\TECHNICAL VALIDATION\TECHNICAL VALIDATION\OFFLINEWINDOW.CPP
C:\USERS\MEIRAJL.SKYSOFT\DOCUMENTS\DEVELOPMENT\TECHNICAL VALIDATION\TECHNICAL VALIDATION\X64\RELEASE\TECHNICAL VALIDATION.PCH.CODEANALYSIS
C:\USERS\MEIRAJL.SKYSOFT\DOCUMENTS\DEVELOPMENT\TECHNICAL VALIDATION\TECHNICAL VALIDATION\OFFLINEWINDOW.H
C:\USERS\MEIRAJL.SKYSOFT\DOCUMENTS\DEVELOPMENT\TECHNICAL VALIDATION\TECHNICAL VALIDATION\RESOURCE.H
C:\USERS\MEIRAJL.SKYSOFT\DOCUMENTS\DEVELOPMENT\TECHNICAL VALIDATION\TECHNICAL VALIDATION\X64\RELEASE\TECHNICAL VALIDATION.PCH.CODEANALYSISAST
C:\PROGRAM FILES (X86)\MICROSOFT VISUAL STUDIO 14.0\VC\BIN\1033\MSPFT140UI.DLL
C:\WINDOWS\SYSTEM32\MSXML6R.DLL
^C:\USERS\MEIRAJL.SKYSOFT\DOCUMENTS\DEVELOPMENT\TECHNICAL VALIDATION\TECHNICAL VALIDATION\ROUTEINFORMATION.CPP
C:\USERS\MEIRAJL.SKYSOFT\DOCUMENTS\DEVELOPMENT\TECHNICAL VALIDATION\TECHNICAL VALIDATION\X64\RELEASE\TECHNICAL VALIDATION.PCH.CODEANALYSIS
C:\USERS\MEIRAJL.SKYSOFT\DOCUMENTS\DEVELOPMENT\TECHNICAL VALIDATION\TECHNICAL VALIDATION\ROUTEINFORMATION.H
C:\USERS\MEIRAJL.SKYSOFT\DOCUMENTS\DEVELOPMENT\TECHNICAL VALIDATION\TECHNICAL VALIDATION\RESOURCE.H
C:\USERS\MEIRAJL.SKYSOFT\DOCUMENTS\DEVELOPMENT\TECHNICAL VALIDATION\TECHNICAL VALIDATION\X64\RELEASE\TECHNICAL VALIDATION.PCH.CODEANALYSISAST
C:\PROGRAM FILES (X86)\MICROSOFT VISUAL STUDIO 14.0\VC\BIN\1033\MSPFT140UI.DLL
C:\WINDOWS\SYSTEM32\MSXML6R.DLL
^C:\USERS\MEIRAJL.SKYSOFT\DOCUMENTS\DEVELOPMENT\TECHNICAL VALIDATION\TECHNICAL VALIDATION\SEQUENCEERROR.CPP
C:\USERS\MEIRAJL.SKYSOFT\DOCUMENTS\DEVELOPMENT\TECHNICAL VALIDATION\TECHNICAL VALIDATION\X64\RELEASE\TECHNICAL VALIDATION.PCH.CODEANALYSIS
C:\USERS\MEIRAJL.SKYSOFT\DOCUMENTS\DEVELOPMENT\TECHNICAL VALIDATION\TECHNICAL VALIDATION\SEQUENCEERROR.H
C:\USERS\MEIRAJL.SKYSOFT\DOCUMENTS\DEVELOPMENT\TECHNICAL VALIDATION\TECHNICAL VALIDATION\RESOURCE.H
C:\USERS\MEIRAJL.SKYSOFT\DOCUMENTS\DEVELOPMENT\TECHNICAL VALIDATION\TECHNICAL VALIDATION\X64\RELEASE\TECHNICAL VALIDATION.PCH.CODEANALYSISAST
C:\PROGRAM FILES (X86)\MICROSOFT VISUAL STUDIO 14.0\VC\BIN\1033\MSPFT140UI.DLL
C:\WINDOWS\SYSTEM32\MSXML6R.DLL
^C:\USERS\MEIRAJL.SKYSOFT\DOCUMENTS\DEVELOPMENT\TECHNICAL VALIDATION\TECHNICAL VALIDATION\FLIGHTPLAN.CPP
C:\USERS\MEIRAJL.SKYSOFT\DOCUMENTS\DEVELOPMENT\TECHNICAL VALIDATION\TECHNICAL VALIDATION\X64\RELEASE\TECHNICAL VALIDATION.PCH.CODEANALYSIS
C:\USERS\MEIRAJL.SKYSOFT\DOCUMENTS\DEVELOPMENT\TECHNICAL VALIDATION\TECHNICAL VALIDATION\FLIGHTPLAN.H
C:\USERS\MEIRAJL.SKYSOFT\DOCUMENTS\DEVELOPMENT\TECHNICAL VALIDATION\TECHNICAL VALIDATION\ADEXP.H
C:\USERS\MEIRAJL.SKYSOFT\DOCUMENTS\DEVELOPMENT\TECHNICAL VALIDATION\TECHNICAL VALIDATION\OURCONSTANTS.H
C:\USERS\MEIRAJL.SKYSOFT\DOCUMENTS\DEVELOPMENT\TECHNICAL VALIDATION\TECHNICAL VALIDATION\TECHNICAL VALIDATION.H
C:\USERS\MEIRAJL.SKYSOFT\DOCUMENTS\DEVELOPMENT\TECHNICAL VALIDATION\TECHNICAL VALIDATION\RESOURCE.H
C:\USERS\MEIRAJL.SKYSOFT\DOCUMENTS\DEVELOPMENT\TECHNICAL VALIDATION\TECHNICAL VALIDATION\OFFLINE.H
C:\USERS\MEIRAJL.SKYSOFT\DOCUMENTS\DEVELOPMENT\TECHNICAL VALIDATION\TECHNICAL VALIDATION\FPLDOC.H
C:\USERS\MEIRAJL.SKYSOFT\DOCUMENTS\DEVELOPMENT\TECHNICAL VALIDATION\TECHNICAL VALIDATION\FPLWND.H
C:\USERS\MEIRAJL.SKYSOFT\DOCUMENTS\DEVELOPMENT\TECHNICAL VALIDATION\TECHNICAL VALIDATION\CONDITION.H
C:\USERS\MEIRAJL.SKYSOFT\DOCUMENTS\DEVELOPMENT\TECHNICAL VALIDATION\TECHNICAL VALIDATION\COMMONOBJECT.H
C:\USERS\MEIRAJL.SKYSOFT\DOCUMENTS\DEVELOPMENT\TECHNICAL VALIDATION\TECHNICAL VALIDATION\EXCDT.H
C:\USERS\MEIRAJL.SKYSOFT\DOCUMENTS\DEVELOPMENT\TECHNICAL VALIDATION\TECHNICAL VALIDATION\STRINGUTIL.H
C:\USERS\MEIRAJL.SKYSOFT\DOCUMENTS\DEVELOPMENT\TECHNICAL VALIDATION\TECHNICAL VALIDATION\GEO.H
C:\USERS\MEIRAJL.SKYSOFT\DOCUMENTS\DEVELOPMENT\TECHNICAL VALIDATION\TECHNICAL VALIDATION\AREA.H
C:\USERS\MEIRAJL.SKYSOFT\DOCUMENTS\DEVELOPMENT\TECHNICAL VALIDATION\TECHNICAL VALIDATION\AIRWAYS.H
C:\USERS\MEIRAJL.SKYSOFT\DOCUMENTS\DEVELOPMENT\TECHNICAL VALIDATION\TECHNICAL VALIDATION\X64\RELEASE\TECHNICAL VALIDATION.PCH.CODEANALYSISAST
C:\PROGRAM FILES (X86)\MICROSOFT VISUAL STUDIO 14.0\VC\BIN\1033\MSPFT140UI.DLL
C:\WINDOWS\SYSTEM32\MSXML6R.DLL
^C:\USERS\MEIRAJL.SKYSOFT\DOCUMENTS\DEVELOPMENT\TECHNICAL VALIDATION\TECHNICAL VALIDATION\FPLDOC.CPP
C:\USERS\MEIRAJL.SKYSOFT\DOCUMENTS\DEVELOPMENT\TECHNICAL VALIDATION\TECHNICAL VALIDATION\X64\RELEASE\TECHNICAL VALIDATION.PCH.CODEANALYSIS
C:\USERS\MEIRAJL.SKYSOFT\DOCUMENTS\DEVELOPMENT\TECHNICAL VALIDATION\TECHNICAL VALIDATION\FPLDOC.H
C:\USERS\MEIRAJL.SKYSOFT\DOCUMENTS\DEVELOPMENT\TECHNICAL VALIDATION\TECHNICAL VALIDATION\FPLWND.H
C:\USERS\MEIRAJL.SKYSOFT\DOCUMENTS\DEVELOPMENT\TECHNICAL VALIDATION\TECHNICAL VALIDATION\FLIGHTPLAN.H
C:\USERS\MEIRAJL.SKYSOFT\DOCUMENTS\DEVELOPMENT\TECHNICAL VALIDATION\TECHNICAL VALIDATION\ADEXP.H
C:\USERS\MEIRAJL.SKYSOFT\DOCUMENTS\DEVELOPMENT\TECHNICAL VALIDATION\TECHNICAL VALIDATION\OURCONSTANTS.H
C:\USERS\MEIRAJL.SKYSOFT\DOCUMENTS\DEVELOPMENT\TECHNICAL VALIDATION\TECHNICAL VALIDATION\CONDITION.H
C:\USERS\MEIRAJL.SKYSOFT\DOCUMENTS\DEVELOPMENT\TECHNICAL VALIDATION\TECHNICAL VALIDATION\COMMONOBJECT.H
C:\USERS\MEIRAJL.SKYSOFT\DOCUMENTS\DEVELOPMENT\TECHNICAL VALIDATION\TECHNICAL VALIDATION\TECHNICAL VALIDATION.H
C:\USERS\MEIRAJL.SKYSOFT\DOCUMENTS\DEVELOPMENT\TECHNICAL VALIDATION\TECHNICAL VALIDATION\RESOURCE.H
C:\USERS\MEIRAJL.SKYSOFT\DOCUMENTS\DEVELOPMENT\TECHNICAL VALIDATION\TECHNICAL VALIDATION\OFFLINE.H
C:\USERS\MEIRAJL.SKYSOFT\DOCUMENTS\DEVELOPMENT\TECHNICAL VALIDATION\TECHNICAL VALIDATION\EXCDT.H
C:\USERS\MEIRAJL.SKYSOFT\DOCUMENTS\DEVELOPMENT\TECHNICAL VALIDATION\TECHNICAL VALIDATION\GEO.H
C:\USERS\MEIRAJL.SKYSOFT\DOCUMENTS\DEVELOPMENT\TECHNICAL VALIDATION\TECHNICAL VALIDATION\X64\RELEASE\TECHNICAL VALIDATION.PCH.CODEANALYSISAST
C:\PROGRAM FILES (X86)\MICROSOFT VISUAL STUDIO 14.0\VC\BIN\1033\MSPFT140UI.DLL
C:\WINDOWS\SYSTEM32\MSXML6R.DLL
^C:\USERS\MEIRAJL.SKYSOFT\DOCUMENTS\DEVELOPMENT\TECHNICAL VALIDATION\TECHNICAL VALIDATION\FPLWND.CPP
C:\USERS\MEIRAJL.SKYSOFT\DOCUMENTS\DEVELOPMENT\TECHNICAL VALIDATION\TECHNICAL VALIDATION\X64\RELEASE\TECHNICAL VALIDATION.PCH.CODEANALYSIS
C:\USERS\MEIRAJL.SKYSOFT\DOCUMENTS\DEVELOPMENT\TECHNICAL VALIDATION\TECHNICAL VALIDATION\RESOURCE.H
C:\USERS\MEIRAJL.SKYSOFT\DOCUMENTS\DEVELOPMENT\TECHNICAL VALIDATION\TECHNICAL VALIDATION\FPLWND.H
C:\USERS\MEIRAJL.SKYSOFT\DOCUMENTS\DEVELOPMENT\TECHNICAL VALIDATION\TECHNICAL VALIDATION\FPLDOC.H
C:\USERS\MEIRAJL.SKYSOFT\DOCUMENTS\DEVELOPMENT\TECHNICAL VALIDATION\TECHNICAL VALIDATION\FLIGHTPLAN.H
C:\USERS\MEIRAJL.SKYSOFT\DOCUMENTS\DEVELOPMENT\TECHNICAL VALIDATION\TECHNICAL VALIDATION\ADEXP.H
C:\USERS\MEIRAJL.SKYSOFT\DOCUMENTS\DEVELOPMENT\TECHNICAL VALIDATION\TECHNICAL VALIDATION\OURCONSTANTS.H
C:\USERS\MEIRAJL.SKYSOFT\DOCUMENTS\DEVELOPMENT\TECHNICAL VALIDATION\TECHNICAL VALIDATION\CONDITION.H
C:\USERS\MEIRAJL.SKYSOFT\DOCUMENTS\DEVELOPMENT\TECHNICAL VALIDATION\TECHNICAL VALIDATION\COMMONOBJECT.H
C:\USERS\MEIRAJL.SKYSOFT\DOCUMENTS\DEVELOPMENT\TECHNICAL VALIDATION\TECHNICAL VALIDATION\SEQUENCEERROR.H
C:\USERS\MEIRAJL.SKYSOFT\DOCUMENTS\DEVELOPMENT\TECHNICAL VALIDATION\TECHNICAL VALIDATION\OFFLINEERROR.H
C:\USERS\MEIRAJL.SKYSOFT\DOCUMENTS\DEVELOPMENT\TECHNICAL VALIDATION\TECHNICAL VALIDATION\TRAFFICERROR.H
C:\USERS\MEIRAJL.SKYSOFT\DOCUMENTS\DEVELOPMENT\TECHNICAL VALIDATION\TECHNICAL VALIDATION\ROUTEINFORMATION.H
C:\USERS\MEIRAJL.SKYSOFT\DOCUMENTS\DEVELOPMENT\TECHNICAL VALIDATION\TECHNICAL VALIDATION\ICAOROUTE.H
C:\USERS\MEIRAJL.SKYSOFT\DOCUMENTS\DEVELOPMENT\TECHNICAL VALIDATION\TECHNICAL VALIDATION\REMARK.H
C:\USERS\MEIRAJL.SKYSOFT\DOCUMENTS\DEVELOPMENT\TECHNICAL VALIDATION\TECHNICAL VALIDATION\TECHNICAL VALIDATION.H
C:\USERS\MEIRAJL.SKYSOFT\DOCUMENTS\DEVELOPMENT\TECHNICAL VALIDATION\TECHNICAL VALIDATION\OFFLINE.H
C:\USERS\MEIRAJL.SKYSOFT\DOCUMENTS\DEVELOPMENT\TECHNICAL VALIDATION\TECHNICAL VALIDATION\EXCDT.H
C:\USERS\MEIRAJL.SKYSOFT\DOCUMENTS\DEVELOPMENT\TECHNICAL VALIDATION\TECHNICAL VALIDATION\GEO.H
C:\USERS\MEIRAJL.SKYSOFT\DOCUMENTS\DEVELOPMENT\TECHNICAL VALIDATION\TECHNICAL VALIDATION\X64\RELEASE\TECHNICAL VALIDATION.PCH.CODEANALYSISAST
C:\PROGRAM FILES (X86)\MICROSOFT VISUAL STUDIO 14.0\VC\BIN\1033\MSPFT140UI.DLL
C:\WINDOWS\SYSTEM32\MSXML6R.DLL
^C:\USERS\MEIRAJL.SKYSOFT\DOCUMENTS\DEVELOPMENT\TECHNICAL VALIDATION\TECHNICAL VALIDATION\GEO.CPP
C:\USERS\MEIRAJL.SKYSOFT\DOCUMENTS\DEVELOPMENT\TECHNICAL VALIDATION\TECHNICAL VALIDATION\X64\RELEASE\TECHNICAL VALIDATION.PCH.CODEANALYSIS
C:\USERS\MEIRAJL.SKYSOFT\DOCUMENTS\DEVELOPMENT\TECHNICAL VALIDATION\TECHNICAL VALIDATION\OURCONSTANTS.H
C:\USERS\MEIRAJL.SKYSOFT\DOCUMENTS\DEVELOPMENT\TECHNICAL VALIDATION\TECHNICAL VALIDATION\GEO.H
C:\USERS\MEIRAJL.SKYSOFT\DOCUMENTS\DEVELOPMENT\TECHNICAL VALIDATION\TECHNICAL VALIDATION\STRINGUTIL.H
C:\USERS\MEIRAJL.SKYSOFT\DOCUMENTS\DEVELOPMENT\TECHNICAL VALIDATION\TECHNICAL VALIDATION\INIFILE.H
C:\PROGRAM FILES (X86)\WINDOWS KITS\10\INCLUDE\10.0.10240.0\UCRT\MATH.H
C:\USERS\MEIRAJL.SKYSOFT\DOCUMENTS\DEVELOPMENT\TECHNICAL VALIDATION\TECHNICAL VALIDATION\AREA.H
C:\USERS\MEIRAJL.SKYSOFT\DOCUMENTS\DEVELOPMENT\TECHNICAL VALIDATION\TECHNICAL VALIDATION\ADJACENTFIR.H
C:\USERS\MEIRAJL.SKYSOFT\DOCUMENTS\DEVELOPMENT\TECHNICAL VALIDATION\TECHNICAL VALIDATION\COMMONOBJECT.H
C:\USERS\MEIRAJL.SKYSOFT\DOCUMENTS\DEVELOPMENT\TECHNICAL VALIDATION\TECHNICAL VALIDATION\ADEXP.H
C:\USERS\MEIRAJL.SKYSOFT\DOCUMENTS\DEVELOPMENT\TECHNICAL VALIDATION\TECHNICAL VALIDATION\X64\RELEASE\TECHNICAL VALIDATION.PCH.CODEANALYSISAST
C:\PROGRAM FILES (X86)\MICROSOFT VISUAL STUDIO 14.0\VC\BIN\1033\MSPFT140UI.DLL
C:\WINDOWS\SYSTEM32\MSXML6R.DLL
^C:\USERS\MEIRAJL.SKYSOFT\DOCUMENTS\DEVELOPMENT\TECHNICAL VALIDATION\TECHNICAL VALIDATION\ICAOROUTE.CPP
C:\USERS\MEIRAJL.SKYSOFT\DOCUMENTS\DEVELOPMENT\TECHNICAL VALIDATION\TECHNICAL VALIDATION\X64\RELEASE\TECHNICAL VALIDATION.PCH.CODEANALYSIS
C:\USERS\MEIRAJL.SKYSOFT\DOCUMENTS\DEVELOPMENT\TECHNICAL VALIDATION\TECHNICAL VALIDATION\ICAOROUTE.H
C:\USERS\MEIRAJL.SKYSOFT\DOCUMENTS\DEVELOPMENT\TECHNICAL VALIDATION\TECHNICAL VALIDATION\RESOURCE.H
C:\USERS\MEIRAJL.SKYSOFT\DOCUMENTS\DEVELOPMENT\TECHNICAL VALIDATION\TECHNICAL VALIDATION\X64\RELEASE\TECHNICAL VALIDATION.PCH.CODEANALYSISAST
C:\PROGRAM FILES (X86)\MICROSOFT VISUAL STUDIO 14.0\VC\BIN\1033\MSPFT140UI.DLL
C:\WINDOWS\SYSTEM32\MSXML6R.DLL
^C:\USERS\MEIRAJL.SKYSOFT\DOCUMENTS\DEVELOPMENT\TECHNICAL VALIDATION\TECHNICAL VALIDATION\INIFILE.CPP
C:\USERS\MEIRAJL.SKYSOFT\DOCUMENTS\DEVELOPMENT\TECHNICAL VALIDATION\TECHNICAL VALIDATION\X64\RELEASE\TECHNICAL VALIDATION.PCH.CODEANALYSIS
C:\USERS\MEIRAJL.SKYSOFT\DOCUMENTS\DEVELOPMENT\TECHNICAL VALIDATION\TECHNICAL VALIDATION\INIFILE.H
C:\USERS\MEIRAJL.SKYSOFT\DOCUMENTS\DEVELOPMENT\TECHNICAL VALIDATION\TECHNICAL VALIDATION\X64\RELEASE\TECHNICAL VALIDATION.PCH.CODEANALYSISAST
C:\PROGRAM FILES (X86)\MICROSOFT VISUAL STUDIO 14.0\VC\BIN\1033\MSPFT140UI.DLL
C:\WINDOWS\SYSTEM32\MSXML6R.DLL
^C:\USERS\MEIRAJL.SKYSOFT\DOCUMENTS\DEVELOPMENT\TECHNICAL VALIDATION\TECHNICAL VALIDATION\LIMITPOINTS.CPP
C:\USERS\MEIRAJL.SKYSOFT\DOCUMENTS\DEVELOPMENT\TECHNICAL VALIDATION\TECHNICAL VALIDATION\X64\RELEASE\TECHNICAL VALIDATION.PCH.CODEANALYSIS
C:\PROGRAM FILES (X86)\WINDOWS KITS\8.1\INCLUDE\UM\MMSYSTEM.H
C:\PROGRAM FILES (X86)\WINDOWS KITS\8.1\INCLUDE\UM\MMSYSCOM.H
C:\PROGRAM FILES (X86)\WINDOWS KITS\8.1\INCLUDE\SHARED\PSHPACK1.H
C:\PROGRAM FILES (X86)\WINDOWS KITS\8.1\INCLUDE\SHARED\POPPACK.H
C:\PROGRAM FILES (X86)\WINDOWS KITS\8.1\INCLUDE\UM\MCIAPI.H
C:\PROGRAM FILES (X86)\WINDOWS KITS\8.1\INCLUDE\UM\MMISCAPI.H
C:\PROGRAM FILES (X86)\WINDOWS KITS\8.1\INCLUDE\UM\MMISCAPI2.H
C:\PROGRAM FILES (X86)\WINDOWS KITS\8.1\INCLUDE\UM\PLAYSOUNDAPI.H
C:\PROGRAM FILES (X86)\WINDOWS KITS\8.1\INCLUDE\UM\MMEAPI.H
C:\PROGRAM FILES (X86)\WINDOWS KITS\8.1\INCLUDE\UM\TIMEAPI.H
C:\PROGRAM FILES (X86)\WINDOWS KITS\8.1\INCLUDE\UM\JOYSTICKAPI.H
C:\USERS\MEIRAJL.SKYSOFT\DOCUMENTS\DEVELOPMENT\TECHNICAL VALIDATION\TECHNICAL VALIDATION\FPLDOC.H
C:\USERS\MEIRAJL.SKYSOFT\DOCUMENTS\DEVELOPMENT\TECHNICAL VALIDATION\TECHNICAL VALIDATION\FPLWND.H
C:\USERS\MEIRAJL.SKYSOFT\DOCUMENTS\DEVELOPMENT\TECHNICAL VALIDATION\TECHNICAL VALIDATION\FLIGHTPLAN.H
C:\USERS\MEIRAJL.SKYSOFT\DOCUMENTS\DEVELOPMENT\TECHNICAL VALIDATION\TECHNICAL VALIDATION\ADEXP.H
C:\USERS\MEIRAJL.SKYSOFT\DOCUMENTS\DEVELOPMENT\TECHNICAL VALIDATION\TECHNICAL VALIDATION\OURCONSTANTS.H
C:\USERS\MEIRAJL.SKYSOFT\DOCUMENTS\DEVELOPMENT\TECHNICAL VALIDATION\TECHNICAL VALIDATION\CONDITION.H
C:\USERS\MEIRAJL.SKYSOFT\DOCUMENTS\DEVELOPMENT\TECHNICAL VALIDATION\TECHNICAL VALIDATION\COMMONOBJECT.H
C:\USERS\MEIRAJL.SKYSOFT\DOCUMENTS\DEVELOPMENT\TECHNICAL VALIDATION\TECHNICAL VALIDATION\GEO.H
C:\USERS\MEIRAJL.SKYSOFT\DOCUMENTS\DEVELOPMENT\TECHNICAL VALIDATION\TECHNICAL VALIDATION\LIMITPOINTS.H
C:\USERS\MEIRAJL.SKYSOFT\DOCUMENTS\DEVELOPMENT\TECHNICAL VALIDATION\TECHNICAL VALIDATION\STRINGUTIL.H
C:\USERS\MEIRAJL.SKYSOFT\DOCUMENTS\DEVELOPMENT\TECHNICAL VALIDATION\TECHNICAL VALIDATION\INIFILE.H
C:\PROGRAM FILES (X86)\WINDOWS KITS\10\INCLUDE\10.0.10240.0\UCRT\MATH.H
C:\PROGRAM FILES (X86)\MICROSOFT VISUAL STUDIO 14.0\VC\BIN\1033\MSPFT140UI.DLL
C:\WINDOWS\SYSTEM32\MSXML6R.DLL
C:\USERS\MEIRAJL.SKYSOFT\DOCUMENTS\DEVELOPMENT\TECHNICAL VALIDATION\TECHNICAL VALIDATION\X64\RELEASE\TECHNICAL VALIDATION.PCH.CODEANALYSISAST
^C:\USERS\MEIRAJL.SKYSOFT\DOCUMENTS\DEVELOPMENT\TECHNICAL VALIDATION\TECHNICAL VALIDATION\OFFLINE.CPP
C:\USERS\MEIRAJL.SKYSOFT\DOCUMENTS\DEVELOPMENT\TECHNICAL VALIDATION\TECHNICAL VALIDATION\X64\RELEASE\TECHNICAL VALIDATION.PCH.CODEANALYSIS
C:\USERS\MEIRAJL.SKYSOFT\DOCUMENTS\DEVELOPMENT\TECHNICAL VALIDATION\TECHNICAL VALIDATION\OURCONSTANTS.H
C:\USERS\MEIRAJL.SKYSOFT\DOCUMENTS\DEVELOPMENT\TECHNICAL VALIDATION\TECHNICAL VALIDATION\STRINGUTIL.H
C:\USERS\MEIRAJL.SKYSOFT\DOCUMENTS\DEVELOPMENT\TECHNICAL VALIDATION\TECHNICAL VALIDATION\OFFLINE.H
C:\USERS\MEIRAJL.SKYSOFT\DOCUMENTS\DEVELOPMENT\TECHNICAL VALIDATION\TECHNICAL VALIDATION\OFFLINEWINDOW.H
C:\USERS\MEIRAJL.SKYSOFT\DOCUMENTS\DEVELOPMENT\TECHNICAL VALIDATION\TECHNICAL VALIDATION\RESOURCE.H
C:\USERS\MEIRAJL.SKYSOFT\DOCUMENTS\DEVELOPMENT\TECHNICAL VALIDATION\TECHNICAL VALIDATION\FONTMNGR.H
C:\USERS\MEIRAJL.SKYSOFT\DOCUMENTS\DEVELOPMENT\TECHNICAL VALIDATION\TECHNICAL VALIDATION\X64\RELEASE\TECHNICAL VALIDATION.PCH.CODEANALYSISAST
^C:\USERS\MEIRAJL.SKYSOFT\DOCUMENTS\DEVELOPMENT\TECHNICAL VALIDATION\TECHNICAL VALIDATION\REMARK.CPP
C:\USERS\MEIRAJL.SKYSOFT\DOCUMENTS\DEVELOPMENT\TECHNICAL VALIDATION\TECHNICAL VALIDATION\X64\RELEASE\TECHNICAL VALIDATION.PCH.CODEANALYSIS
C:\USERS\MEIRAJL.SKYSOFT\DOCUMENTS\DEVELOPMENT\TECHNICAL VALIDATION\TECHNICAL VALIDATION\REMARK.H
C:\USERS\MEIRAJL.SKYSOFT\DOCUMENTS\DEVELOPMENT\TECHNICAL VALIDATION\TECHNICAL VALIDATION\RESOURCE.H
C:\USERS\MEIRAJL.SKYSOFT\DOCUMENTS\DEVELOPMENT\TECHNICAL VALIDATION\TECHNICAL VALIDATION\X64\RELEASE\TECHNICAL VALIDATION.PCH.CODEANALYSISAST
C:\PROGRAM FILES (X86)\MICROSOFT VISUAL STUDIO 14.0\VC\BIN\1033\MSPFT140UI.DLL
C:\WINDOWS\SYSTEM32\MSXML6R.DLL
^C:\USERS\MEIRAJL.SKYSOFT\DOCUMENTS\DEVELOPMENT\TECHNICAL VALIDATION\TECHNICAL VALIDATION\STRINGUTIL.CPP
C:\USERS\MEIRAJL.SKYSOFT\DOCUMENTS\DEVELOPMENT\TECHNICAL VALIDATION\TECHNICAL VALIDATION\X64\RELEASE\TECHNICAL VALIDATION.PCH.CODEANALYSIS
C:\USERS\MEIRAJL.SKYSOFT\DOCUMENTS\DEVELOPMENT\TECHNICAL VALIDATION\TECHNICAL VALIDATION\STRINGUTIL.H
C:\USERS\MEIRAJL.SKYSOFT\DOCUMENTS\DEVELOPMENT\TECHNICAL VALIDATION\TECHNICAL VALIDATION\X64\RELEASE\TECHNICAL VALIDATION.PCH.CODEANALYSISAST
C:\PROGRAM FILES (X86)\MICROSOFT VISUAL STUDIO 14.0\VC\BIN\1033\MSPFT140UI.DLL
C:\WINDOWS\SYSTEM32\MSXML6R.DLL
^C:\USERS\MEIRAJL.SKYSOFT\DOCUMENTS\DEVELOPMENT\TECHNICAL VALIDATION\TECHNICAL VALIDATION\TECHNICAL VALIDATION.CPP
C:\USERS\MEIRAJL.SKYSOFT\DOCUMENTS\DEVELOPMENT\TECHNICAL VALIDATION\TECHNICAL VALIDATION\X64\RELEASE\TECHNICAL VALIDATION.PCH.CODEANALYSIS
C:\USERS\MEIRAJL.SKYSOFT\DOCUMENTS\DEVELOPMENT\TECHNICAL VALIDATION\TECHNICAL VALIDATION\TECHNICAL VALIDATION.H
C:\USERS\MEIRAJL.SKYSOFT\DOCUMENTS\DEVELOPMENT\TECHNICAL VALIDATION\TECHNICAL VALIDATION\RESOURCE.H
C:\USERS\MEIRAJL.SKYSOFT\DOCUMENTS\DEVELOPMENT\TECHNICAL VALIDATION\TECHNICAL VALIDATION\FLIGHTPLAN.H
C:\USERS\MEIRAJL.SKYSOFT\DOCUMENTS\DEVELOPMENT\TECHNICAL VALIDATION\TECHNICAL VALIDATION\ADEXP.H
C:\USERS\MEIRAJL.SKYSOFT\DOCUMENTS\DEVELOPMENT\TECHNICAL VALIDATION\TECHNICAL VALIDATION\OURCONSTANTS.H
C:\USERS\MEIRAJL.SKYSOFT\DOCUMENTS\DEVELOPMENT\TECHNICAL VALIDATION\TECHNICAL VALIDATION\OFFLINE.H
C:\USERS\MEIRAJL.SKYSOFT\DOCUMENTS\DEVELOPMENT\TECHNICAL VALIDATION\TECHNICAL VALIDATION\FPLDOC.H
C:\USERS\MEIRAJL.SKYSOFT\DOCUMENTS\DEVELOPMENT\TECHNICAL VALIDATION\TECHNICAL VALIDATION\FPLWND.H
C:\USERS\MEIRAJL.SKYSOFT\DOCUMENTS\DEVELOPMENT\TECHNICAL VALIDATION\TECHNICAL VALIDATION\CONDITION.H
C:\USERS\MEIRAJL.SKYSOFT\DOCUMENTS\DEVELOPMENT\TECHNICAL VALIDATION\TECHNICAL VALIDATION\COMMONOBJECT.H
C:\USERS\MEIRAJL.SKYSOFT\DOCUMENTS\DEVELOPMENT\TECHNICAL VALIDATION\TECHNICAL VALIDATION\EXCDT.H
C:\USERS\MEIRAJL.SKYSOFT\DOCUMENTS\DEVELOPMENT\TECHNICAL VALIDATION\TECHNICAL VALIDATION\TECHNICAL VALIDATIONDLG.H
C:\USERS\MEIRAJL.SKYSOFT\DOCUMENTS\DEVELOPMENT\TECHNICAL VALIDATION\TECHNICAL VALIDATION\LIMITPOINTS.H
C:\USERS\MEIRAJL.SKYSOFT\DOCUMENTS\DEVELOPMENT\TECHNICAL VALIDATION\TECHNICAL VALIDATION\GEO.H
C:\USERS\MEIRAJL.SKYSOFT\DOCUMENTS\DEVELOPMENT\TECHNICAL VALIDATION\TECHNICAL VALIDATION\AREA.H
C:\USERS\MEIRAJL.SKYSOFT\DOCUMENTS\DEVELOPMENT\TECHNICAL VALIDATION\TECHNICAL VALIDATION\ADJACENTFIR.H
C:\USERS\MEIRAJL.SKYSOFT\DOCUMENTS\DEVELOPMENT\TECHNICAL VALIDATION\TECHNICAL VALIDATION\X64\RELEASE\TECHNICAL VALIDATION.PCH.CODEANALYSISAST
C:\PROGRAM FILES (X86)\MICROSOFT VISUAL STUDIO 14.0\VC\BIN\1033\MSPFT140UI.DLL
C:\WINDOWS\SYSTEM32\MSXML6R.DLL
^C:\USERS\MEIRAJL.SKYSOFT\DOCUMENTS\DEVELOPMENT\TECHNICAL VALIDATION\TECHNICAL VALIDATION\TECHNICAL VALIDATIONDLG.CPP
C:\USERS\MEIRAJL.SKYSOFT\DOCUMENTS\DEVELOPMENT\TECHNICAL VALIDATION\TECHNICAL VALIDATION\X64\RELEASE\TECHNICAL VALIDATION.PCH.CODEANALYSIS
C:\USERS\MEIRAJL.SKYSOFT\DOCUMENTS\DEVELOPMENT\TECHNICAL VALIDATION\TECHNICAL VALIDATION\TECHNICAL VALIDATION.H
C:\USERS\MEIRAJL.SKYSOFT\DOCUMENTS\DEVELOPMENT\TECHNICAL VALIDATION\TECHNICAL VALIDATION\RESOURCE.H
C:\USERS\MEIRAJL.SKYSOFT\DOCUMENTS\DEVELOPMENT\TECHNICAL VALIDATION\TECHNICAL VALIDATION\FLIGHTPLAN.H
C:\USERS\MEIRAJL.SKYSOFT\DOCUMENTS\DEVELOPMENT\TECHNICAL VALIDATION\TECHNICAL VALIDATION\ADEXP.H
C:\USERS\MEIRAJL.SKYSOFT\DOCUMENTS\DEVELOPMENT\TECHNICAL VALIDATION\TECHNICAL VALIDATION\OURCONSTANTS.H
C:\USERS\MEIRAJL.SKYSOFT\DOCUMENTS\DEVELOPMENT\TECHNICAL VALIDATION\TECHNICAL VALIDATION\OFFLINE.H
C:\USERS\MEIRAJL.SKYSOFT\DOCUMENTS\DEVELOPMENT\TECHNICAL VALIDATION\TECHNICAL VALIDATION\FPLDOC.H
C:\USERS\MEIRAJL.SKYSOFT\DOCUMENTS\DEVELOPMENT\TECHNICAL VALIDATION\TECHNICAL VALIDATION\FPLWND.H
C:\USERS\MEIRAJL.SKYSOFT\DOCUMENTS\DEVELOPMENT\TECHNICAL VALIDATION\TECHNICAL VALIDATION\CONDITION.H
C:\USERS\MEIRAJL.SKYSOFT\DOCUMENTS\DEVELOPMENT\TECHNICAL VALIDATION\TECHNICAL VALIDATION\COMMONOBJECT.H
C:\USERS\MEIRAJL.SKYSOFT\DOCUMENTS\DEVELOPMENT\TECHNICAL VALIDATION\TECHNICAL VALIDATION\EXCDT.H
C:\USERS\MEIRAJL.SKYSOFT\DOCUMENTS\DEVELOPMENT\TECHNICAL VALIDATION\TECHNICAL VALIDATION\TECHNICAL VALIDATIONDLG.H
C:\USERS\MEIRAJL.SKYSOFT\DOCUMENTS\DEVELOPMENT\TECHNICAL VALIDATION\TECHNICAL VALIDATION\TECHNICALVALIDATIONFILE.H
C:\USERS\MEIRAJL.SKYSOFT\DOCUMENTS\DEVELOPMENT\TECHNICAL VALIDATION\TECHNICAL VALIDATION\GEO.H
C:\USERS\MEIRAJL.SKYSOFT\DOCUMENTS\DEVELOPMENT\TECHNICAL VALIDATION\TECHNICAL VALIDATION\OFFLINEWINDOW.H
C:\USERS\MEIRAJL.SKYSOFT\DOCUMENTS\DEVELOPMENT\TECHNICAL VALIDATION\TECHNICAL VALIDATION\FPLDLG.H
C:\USERS\MEIRAJL.SKYSOFT\DOCUMENTS\DEVELOPMENT\TECHNICAL VALIDATION\TECHNICAL VALIDATION\X64\RELEASE\TECHNICAL VALIDATION.PCH.CODEANALYSISAST
C:\PROGRAM FILES (X86)\MICROSOFT VISUAL STUDIO 14.0\VC\BIN\1033\MSPFT140UI.DLL
C:\WINDOWS\SYSTEM32\MSXML6R.DLL
^C:\USERS\MEIRAJL.SKYSOFT\DOCUMENTS\DEVELOPMENT\TECHNICAL VALIDATION\TECHNICAL VALIDATION\TECHNICALVALIDATIONFILE.CPP
C:\USERS\MEIRAJL.SKYSOFT\DOCUMENTS\DEVELOPMENT\TECHNICAL VALIDATION\TECHNICAL VALIDATION\X64\RELEASE\TECHNICAL VALIDATION.PCH.CODEANALYSIS
C:\USERS\MEIRAJL.SKYSOFT\DOCUMENTS\DEVELOPMENT\TECHNICAL VALIDATION\TECHNICAL VALIDATION\TECHNICALVALIDATIONFILE.H
C:\USERS\MEIRAJL.SKYSOFT\DOCUMENTS\DEVELOPMENT\TECHNICAL VALIDATION\TECHNICAL VALIDATION\TECHNICAL VALIDATION.H
C:\USERS\MEIRAJL.SKYSOFT\DOCUMENTS\DEVELOPMENT\TECHNICAL VALIDATION\TECHNICAL VALIDATION\RESOURCE.H
C:\USERS\MEIRAJL.SKYSOFT\DOCUMENTS\DEVELOPMENT\TECHNICAL VALIDATION\TECHNICAL VALIDATION\FLIGHTPLAN.H
C:\USERS\MEIRAJL.SKYSOFT\DOCUMENTS\DEVELOPMENT\TECHNICAL VALIDATION\TECHNICAL VALIDATION\ADEXP.H
C:\USERS\MEIRAJL.SKYSOFT\DOCUMENTS\DEVELOPMENT\TECHNICAL VALIDATION\TECHNICAL VALIDATION\OURCONSTANTS.H
C:\USERS\MEIRAJL.SKYSOFT\DOCUMENTS\DEVELOPMENT\TECHNICAL VALIDATION\TECHNICAL VALIDATION\OFFLINE.H
C:\USERS\MEIRAJL.SKYSOFT\DOCUMENTS\DEVELOPMENT\TECHNICAL VALIDATION\TECHNICAL VALIDATION\FPLDOC.H
C:\USERS\MEIRAJL.SKYSOFT\DOCUMENTS\DEVELOPMENT\TECHNICAL VALIDATION\TECHNICAL VALIDATION\FPLWND.H
C:\USERS\MEIRAJL.SKYSOFT\DOCUMENTS\DEVELOPMENT\TECHNICAL VALIDATION\TECHNICAL VALIDATION\CONDITION.H
C:\USERS\MEIRAJL.SKYSOFT\DOCUMENTS\DEVELOPMENT\TECHNICAL VALIDATION\TECHNICAL VALIDATION\COMMONOBJECT.H
C:\USERS\MEIRAJL.SKYSOFT\DOCUMENTS\DEVELOPMENT\TECHNICAL VALIDATION\TECHNICAL VALIDATION\EXCDT.H
C:\USERS\MEIRAJL.SKYSOFT\DOCUMENTS\DEVELOPMENT\TECHNICAL VALIDATION\TECHNICAL VALIDATION\X64\RELEASE\TECHNICAL VALIDATION.PCH.CODEANALYSISAST
C:\PROGRAM FILES (X86)\MICROSOFT VISUAL STUDIO 14.0\VC\BIN\1033\MSPFT140UI.DLL
C:\WINDOWS\SYSTEM32\MSXML6R.DLL
^C:\USERS\MEIRAJL.SKYSOFT\DOCUMENTS\DEVELOPMENT\TECHNICAL VALIDATION\TECHNICAL VALIDATION\TRAFFICERROR.CPP
C:\USERS\MEIRAJL.SKYSOFT\DOCUMENTS\DEVELOPMENT\TECHNICAL VALIDATION\TECHNICAL VALIDATION\X64\RELEASE\TECHNICAL VALIDATION.PCH.CODEANALYSIS
C:\USERS\MEIRAJL.SKYSOFT\DOCUMENTS\DEVELOPMENT\TECHNICAL VALIDATION\TECHNICAL VALIDATION\TRAFFICERROR.H
C:\USERS\MEIRAJL.SKYSOFT\DOCUMENTS\DEVELOPMENT\TECHNICAL VALIDATION\TECHNICAL VALIDATION\RESOURCE.H
C:\PROGRAM FILES (X86)\MICROSOFT VISUAL STUDIO 14.0\VC\BIN\1033\MSPFT140UI.DLL
C:\WINDOWS\SYSTEM32\MSXML6R.DLL
C:\USERS\MEIRAJL.SKYSOFT\DOCUMENTS\DEVELOPMENT\TECHNICAL VALIDATION\TECHNICAL VALIDATION\X64\RELEASE\TECHNICAL VALIDATION.PCH.CODEANALYSISAST
